<?xml version="1.0" encoding="UTF-8" standalone="no"?>
<!-- Created with Inkscape (http://www.inkscape.org/) -->

<svg
   xmlns:dc="http://purl.org/dc/elements/1.1/"
   xmlns:cc="http://creativecommons.org/ns#"
   xmlns:rdf="http://www.w3.org/1999/02/22-rdf-syntax-ns#"
   xmlns:svg="http://www.w3.org/2000/svg"
   xmlns="http://www.w3.org/2000/svg"
   xmlns:xlink="http://www.w3.org/1999/xlink"
   xmlns:sodipodi="http://sodipodi.sourceforge.net/DTD/sodipodi-0.dtd"
   xmlns:inkscape="http://www.inkscape.org/namespaces/inkscape"
   width="744.09448819"
   height="1052.3622047"
   id="svg2"
   version="1.1"
   inkscape:version="0.48.3.1 r9886"
   sodipodi:docname="footer_garea.svg"
   inkscape:export-filename="/home/rafael/Dropbox/Software/Transportes Garea/Logotipo/footer_garea.png"
   inkscape:export-xdpi="300"
   inkscape:export-ydpi="300">
  <defs
     id="defs4" />
  <sodipodi:namedview
     id="base"
     pagecolor="#ffffff"
     bordercolor="#666666"
     borderopacity="1.0"
     inkscape:pageopacity="0.0"
     inkscape:pageshadow="2"
     inkscape:zoom="1.4"
     inkscape:cx="392.99928"
     inkscape:cy="475.26719"
     inkscape:document-units="px"
     inkscape:current-layer="layer1"
     showgrid="false"
     inkscape:window-width="1280"
     inkscape:window-height="1000"
     inkscape:window-x="1280"
     inkscape:window-y="24"
     inkscape:window-maximized="1" />
  <metadata
     id="metadata7">
    <rdf:RDF>
      <cc:Work
         rdf:about="">
        <dc:format>image/svg+xml</dc:format>
        <dc:type
           rdf:resource="http://purl.org/dc/dcmitype/StillImage" />
        <dc:title />
      </cc:Work>
    </rdf:RDF>
  </metadata>
  <g
     inkscape:label="Layer 1"
     inkscape:groupmode="layer"
     id="layer1">
    <rect
       style="fill:#003b7d;fill-opacity:1;stroke:none"
       id="rect2996"
       width="657.38977"
       height="55.838562"
       x="41.483315"
       y="977.95215"
       inkscape:export-filename="/home/rafael/Dropbox/Software/Transportes Garea/Logotipo/footer_factura_good.jpg.png"
       inkscape:export-xdpi="150"
       inkscape:export-ydpi="150" />
    <rect
       style="fill:#d89c68;fill-opacity:1;stroke:none"
       id="rect3780"
       width="657.36829"
       height="1.8491408"
       x="41.493965"
       y="973.81415"
       inkscape:export-filename="/home/rafael/Dropbox/Software/Transportes Garea/Logotipo/footer_factura_good.jpg.png"
       inkscape:export-xdpi="150"
       inkscape:export-ydpi="150" />
    <rect
       style="fill:#d89c68;fill-opacity:1;stroke:none"
       id="rect3780-8"
       width="657.36829"
       height="1.8491307"
       x="41.493965"
       y="971.42346"
       inkscape:export-filename="/home/rafael/Dropbox/Software/Transportes Garea/Logotipo/footer_factura_good.jpg.png"
       inkscape:export-xdpi="150"
       inkscape:export-ydpi="150" />
    <rect
       style="fill:#d89c68;fill-opacity:1;stroke:none"
       id="rect3780-8-6"
       width="657.36829"
       height="1.8491307"
       x="41.493965"
       y="969.0329"
       inkscape:export-filename="/home/rafael/Dropbox/Software/Transportes Garea/Logotipo/footer_factura_good.jpg.png"
       inkscape:export-xdpi="150"
       inkscape:export-ydpi="150" />
    <rect
       style="fill:#013a7d;fill-opacity:1;stroke:none"
       id="rect3780-6"
       width="657.36829"
       height="1.8491408"
       x="41.493965"
       y="966.63275"
       inkscape:export-filename="/home/rafael/Dropbox/Software/Transportes Garea/Logotipo/footer_factura_good.jpg.png"
       inkscape:export-xdpi="150"
       inkscape:export-ydpi="150" />
    <rect
       style="fill:#013a7d;fill-opacity:1;stroke:none"
       id="rect3780-8-1"
       width="657.36829"
       height="1.8491307"
       x="41.493965"
       y="964.24237"
       inkscape:export-filename="/home/rafael/Dropbox/Software/Transportes Garea/Logotipo/footer_factura_good.jpg.png"
       inkscape:export-xdpi="150"
       inkscape:export-ydpi="150" />
    <rect
       style="fill:#013a7d;fill-opacity:1;stroke:none"
       id="rect3780-8-6-8"
       width="657.36829"
       height="1.8491307"
       x="41.493965"
       y="961.85132"
       inkscape:export-filename="/home/rafael/Dropbox/Software/Transportes Garea/Logotipo/footer_factura_good.jpg.png"
       inkscape:export-xdpi="150"
       inkscape:export-ydpi="150" />
    <flowRoot
       xml:space="preserve"
       id="flowRoot3842"
       style="font-size:14px;font-style:normal;font-variant:normal;font-weight:bold;font-stretch:normal;text-align:start;line-height:125%;letter-spacing:0px;word-spacing:0px;writing-mode:lr-tb;text-anchor:start;fill:#003b7d;fill-opacity:1;stroke:none;font-family:Arial;-inkscape-font-specification:Arial Bold"
       transform="matrix(0.88833565,0,0,0.88833565,117.55489,124.32091)"
       inkscape:export-filename="/home/rafael/Dropbox/Software/Transportes Garea/Logotipo/footer_factura_good.jpg.png"
       inkscape:export-xdpi="150"
       inkscape:export-ydpi="150"><flowRegion
         id="flowRegion3844"><rect
           id="rect3846"
           width="637.85718"
           height="20.000069"
           x="82.85714"
           y="925.93359"
           style="font-size:14px;font-style:normal;font-variant:normal;font-weight:bold;font-stretch:normal;text-align:start;line-height:125%;writing-mode:lr-tb;text-anchor:start;fill:#003b7d;fill-opacity:1;font-family:Arial;-inkscape-font-specification:Arial Bold" /></flowRegion><flowPara
         id="flowPara3848">TRANSPORTES DE PAQUETERIA GAREA S.L. - B-15.817.406</flowPara></flowRoot>    <flowRoot
       xml:space="preserve"
       id="flowRoot3850"
       style="font-size:16px;font-style:normal;font-variant:normal;font-weight:bold;font-stretch:normal;text-align:center;line-height:125%;letter-spacing:0px;word-spacing:0px;writing-mode:lr-tb;text-anchor:middle;fill:#ffffff;fill-opacity:1;stroke:none;font-family:Arial;-inkscape-font-specification:Arial Bold"
       transform="matrix(0.88833565,0,0,0.88833565,-53.360347,37.909056)"
       inkscape:export-filename="/home/rafael/Dropbox/Software/Transportes Garea/Logotipo/footer_factura_good.jpg.png"
       inkscape:export-xdpi="150"
       inkscape:export-ydpi="150"><flowRegion
         id="flowRegion3852"><rect
           id="rect3854"
           width="622.60419"
           height="53.552959"
           x="165.66502"
           y="1068.0195"
           style="font-size:16px;font-style:normal;font-variant:normal;font-weight:bold;font-stretch:normal;text-align:center;line-height:125%;writing-mode:lr-tb;text-anchor:middle;fill:#ffffff;font-family:Arial;-inkscape-font-specification:Arial Bold" /></flowRegion><flowPara
         id="flowPara3856">Rúa Traspedra, 10 - 15800 Melide (A Coruña) - Telf. 659 981 164 - Fax 981 505 476</flowPara><flowPara
         id="flowPara3858">email: info@transportesgarea.com</flowPara></flowRoot>    <image
       y="448.00507"
       x="101.42857"
       id="image3212"
       xlink:href="data:image/png;base64,iVBORw0KGgoAAAANSUhEUgAAASwAAACPCAIAAADP4HHWAAAAA3NCSVQICAjb4U/gAAAgAElEQVR4 nOy9d5Rc130m+N34Qr1KnZETkQiQCCSYSZGSmCUqUJItWZZkyR5bPuOwnvHuWLu258zaZ+0zHq9m PZa1ljxjZZsSTUlMZgJJkARBEIFEBpHRQAOdqrvSSzftH9UNAhTpnTOHoHbJ/k6d6npV7xUK793v /e793e/3XeKcwwxm8M7ATT+Tn/mIWACAPW8/60BzEAMKUAAMIAAFCMDceTvmgABc5wgCOvWVjUaz VC6CIMuU8LhSGRfSwRGwVjulxCOSjLbRyLF12/BDP31qbHBUtSd1Xl975cqPfubDG64e4ICPpAiq k5zLIgimHm8ryAwJZ/DO4a3aGukw005vn6MiMYCZYhWl0yTs7KKUc856HnvDP5HFqRf6sAaMqTQW gd/5JFGaC5lkTmlSKGB8Ek88/fzml7bu3HMkt1Eau3SyUfKlZJoFTpT8m27e8Pu//ZkA8ExKKYfj 1oCKt/eMADMknME7Dnve6ylCuXM0fGOYtHD2wp2nwxyBA+w0rxWUc04S2omWsATOGZUxQUG0s8gM 4V6kgWaGnXtq9//ksWc3v0BhfBozRuOcf+Urf/TBm+ZxB+bwP/3Pf7F9z744a/z5n/yvd9+8jmvN GaxhhBHydodBzJBwBu8w3DQJLUDPMeotQDo8w3k8JBaEgtgsy6TnWdjcKkIZAQFAAK3yUHhJkgVB AMABjWarUCyNN9Sefce2v3Lw4KGTz764LVWmu6937kDPB25YvWjh3JtvWWeA1iT6KshSSB9f/foj 3/+Hf7x85ZJv/Jc/Esp63FhiKRP4f/vN/wPgb/s3zmAGb4UpTsGe9xr/QrPu9D9Bzt+BAMbBckEI DIHxqHMwgHVwmTKhKLfSzA8KGXBmcrJYruR+6atff3zL5p31en2yNkpp3l2kd9126wfef/OSRfOo U9zjHCDAQAUUNkPGEKxdd/mm57aMnG1MjKMagjHLOZRNBA3edh7OkHAG7zTceS/Ode7oVGy8oLcK wFFgerepXAyBc45SZmAZmANTOjfGBF7oC54D3PeaBhNNvf9w7Tvf/8aWrfuiQjWO095qad36VR+6 46Zbb1pfKkDFKvRBiDAOOcBhrKsTgpJfiDW6yqU816WoMlFLZ3X5lFDjMk7Z9M98OzFDwhm8w6C4 kHsd3pE35F0AdEZ257V6N7VlQGAcstSEngcgaRnfL8BiooWM4uVdRx+4//EzZyeHz9ZynftcrFk9 75Mfvz0K+JpVy4oenAbRKITMZDEjgjEnQRWSPGkEYRHQlMhiVGg3G+WgwBhjDNYiV8qXFyaB3ibM kHAG7zQ6fAPsBQmYqU3aeT4/UdFhoIGjsAZmKmYSQQTXFFkGS30iceQkfvLw4z/950fG661qZcBo Uomi9Ves+vSn71q4KOAc1OUcWbvVKhZK0BYQjFKYDA7GWE8KP6xYKKO0J0i73ZQetzaPKiLPIQSR 0teAmBkTzuD/1zgX6DpMm+p7OgtYEALnAJtrRQgRXDgQCkpA81xLya1OKedx1gq8QjtNmOSC05bG 4JB95pltTzz5wunBMZPlAmROV9+G9ZdeefVlG65eXe0ijbaKOIwzWdqOAp/6xKiWLwtw1GhC0piW CpIGzlpnKBURFSJWoAxCQuk4V7kQEgBACahzDnBvb5J0hoQzeEdBLkjGU0B33oZRAMCYFBKAA7TR hJA0TaOwkOaJcUQ5UFppxi4IK0mO79731AM/fjhOjJDF2mSLCdldjv7j//YHK5dKS2Go8kLFQbsK TLucGVsNisSpkAkwwKXt4dOF3l5wgWbdyiKVPlgAywAqpyYDDagFUZZKagHHQMhMdnQG7xY4TA3x zjVpJpzWWZJRzhnnloAwaWFIaNtocRmpjPsCJ4+4Eycnnn32xRde3JqkcaraPf2leQui2+5cfdP7 rl63fJGfQxC0Ws0oKjhq62nT931JuAKY43kjlaEP20wH9xXKrrZnK/ze1BT6F6wEFZ3Rp9FAJ/IR 64gFUVMpIcdB8NaCg/9xzJBwBj8nOAdYOALiAAJjCfd8HhjAAZm2FsitYzLg8HNg7+HT933v4YP7 Txolm404V+m8+QMbrrr59rtuXHJJ2SL1hBVoEWlyo6JqQdmMQ1T9Yp6nlJiAEDSHZRAkx3Ye3vty 3BxS2UgrzSd0qW/R+ursRYFfSpPcDyWlUJ0fSCyIPT9fSx2mBQVvJ2ZIOIN3FgR4Pc+JTlMHYZl2 klFlYAgMoBxlAmlb1sbx8KNPff+733XGVktlrTJr1Pwls37nt//NpcvmRQUYDWvy0OOAm0zGWSAc oxpWW0fathgWvJTCJXB11I7s3vncyWP7okJQr01EQVXK4sKFC3sWDATlEMRS6kBACKyd5pmjAKWO EEfP//1vL2ZIOIN3FB3FjCMODs455xxAnbXSEwbIDbiEc3jt6OSOnbue37zt5MmxJMudkVK69Ves vvLK1ddfs65U9EOP5FncbuWVKCKcaqUo5VHQlSCnIJnJSrzAIgqTwNMYG9r53ENnT++BnVhz2fIw DLvWfaq+bX953iWYdwm8LsA6aBEwEDgCY2AJbEcs4DrTEm//UPAcZkg4g3cODtag098EpcRZWEes ccaRyVZaqvrNFPt3Df304cee3PgsFUGxUGiOj86d1XftrR/41//6UyAIBJRzkhBl49CT8LgGrIEj UjAGBWmk7yHLNGUNiAy22Tp77PlnHrNJs9QT3XD7x0EswsLRp54sReHGJ/5p5fV3zlpxRWythRd4 BTgO4tMO7xyDowA/1/28CFEQmCHhewBvEEC/EW8mm37j4Q6WXDh3d+7bzj/KvVHugqmyonONmFAH S6ZUo9SC5A4ZoIFdR4d2bH/10UceaTQacNTnfOnSRV3V4mfu/d31l82VAsZCW0dAJCHKJYJSIFNK h8InjMLkyBVNM5OpfbuPd3d3988qI63Xhvbuf+UZnZyCVovmrzn84rNEmTODJz2Pn8obWhSf2PjU x+auKnb1GnS03o7Cak2pA0WHh69P0DtyUXg4Q8J3N+zP6MDgLmSjPU8yhnNTCFMjNwsYwFpYCnpO 6ummmiIlAAOsNpSzTpSbpqux1nEqKJC20yAI4YDMQRDOuTYgFCBIMpwYVd964PHN2/eO15vMZKYR lz36geuu+MTH7l6x4hJjbOhRlbaZ1YxTTkVmSErgUc+i5QOEaYI2YEDatVefPbB/53DcUiL62L2/ CUYxme3b8rJpDlbdhCXqxKsbS6xIM9trbcjCMWQWUVe1X1nhwGKdFXhZUK6MllzCGQpGIZwjDiDU AMw4sIvAwxkSvhfQiXNvKXo8V05L3+RmTwDWKXeg0wV/nahIzn03GBwAwolwsIBNM+17vtKmGTfL pWqWqTTJy+VCotCIQRnSerZ3z/4tW3d/674fez1zjQzKXdU5PbNuv/bDH7/9xt4ybO4ylZUKnkWn 8TtCqVZaeh6DzfSor+rE56KVZHH71e3bhk8cCNSYRRZWKv2LlohyBdqbqKX1el4At+Bc+o6YZmxm lXpCQvcffq3Q12dJYenydYWoaqcm4gFCKc6fiafT6lVrcVE0a5gh4XsDF0wxn2thnZh3Tr05Deum mEjJuSY4jamxkgMIiJv+hk4kzQkIiKMQNGARLATlxZKngJqJo0p5HGqS4MmX9z2zccvwkePH9h7o K3dXg+jqdStXrVm+bt3yuQOV2dWQ2cwkxjHJPa+pAQ4elFILDlAJ59K8OVgMM9QOnzly6LW9h/Mc ieNcivLsxavXXRH0LYE/YPKKNQh7Fs5feZ3TC5qNoYXLL/GlX120HEPD+57Z1LV8/vBkfOWNd5Xm r6BeaADOJRx1zhFC3v6pwH8RMyR8d+NfyumdK004r6DWnjcJRl93o7iwVZJOWO3M8DkAsMpRNu0r oaCN4yExFolGasH98oFTo1//5jd27js8HjtJg14vmDdvzk1Xbvji5z4zZ4EgFCo3vjDMtlSSgkop w+x11SgYQZo4SZTH2unIkScf+36XSNKJel/XAhlV/crsxTddD+EAqVWBIcw1Al9ClC5bdSlcL6pX wTpo9+JDG0eHhj0iGq3sk7/6WwhLkBEcLCEMghBGQAjh+k1YeBGJOUPCdz3eiodT0Y9c8Hxh9fr5 e7jzsjfn+7sQABY0hRRaKSZ4M22HUXW43iqXowMHRl/YsnPfvuPPv7jDGSnD8oIeet2Gy9YsveTj d93gUSgNlSkDEwSeVZaRQIQRCNI8SWC4ICRrFf0CEAIZeL7t0fvOHN8szUSSq8vWrp/dvwIDi6Do 4a3bzzRHb7z7w87noNYnaXz6iBrcWzu2o3Zqe/9AKWXeqYl0vM0vWb1hYP7i/kvXJNpwnwlHnCWE CoA7SzoWMsa8XSf/vwszJJzBfx8cpkeC5/quBpgyPkrT3Pe8DIxBtollwH0/fXrjxhdOHD/LRRjI snTyuutvvOWWazdsmDvQC6JBjGvFcVQscMkcKJyigsBpJE1Q60smXR43J13aOHV0olxZVOztR/Ps xOD+gq6HgaVUzF6z6sz2Y8df3KmYP9JOZ61cBq+UKqra4xODp07s2OrVT3WzBJa0W3osUzTqvfdj n4rhhbPmgwe5TQUJ4RhhgoAYAMYxToCpKo83OwUXZZJihoTvcpyX7DyHN+ZLX+9qkU531EwdQc6l JeCIJR23CWIcrIOx1jjnlHWcF1mh0gZywl56cfCHP3pky0vbPRl6Us6bt1JnrRuuXf/Ln/lYXy8o gbNoN+rlYjlVOZO+IWjFOgolbAoSg2TwM6hUnzj72uHjp4cGR0aGPvmLvyT7CmgPjx3Z7dGYqLog WRSVdvzD30/UXaV/cabNssvXL73x9hTVSFBCUsVPWRI3XGaJV1pwnSv1XLHmar9/NjzPgxmt1arl Yki7uAvOU/BQzqc22EWcmX8TzJBwBufB0WkeTgc9MmVF4ZibVprRqVkLSzQo5WE9w569R77/gx+P DDdOnBhhVHIWeML/1S989tJLFy1eUOgqgwDGKMYYYMqlYpa1/MA32uksKwlGTAIksHV1Zv9rB3bW zoxQJ5IWGxmfXLJ6ueztg46h62dO7qJ5TRAdCH9sohWUeq694spw/iXonQda3L7z5bBnwbxZi6NQ ds+dc1P3HZLBpYr0zAcpOlZsOnJ2otZX7Q27eieTZjUoZknuCQ5iLQUlnVJGaA28uaXaRZqrnyHh ux3kzULhz4AarQkhlDFYmqeJDCSI00YZl3MuHawD6zwyC+uo1jAWSYb7H9rxyGPPnB48yZmjVi+Y 2zd/zqxfuPeeK9bPpgRKw8E4MAcQxlJYQYU2EJ5HkHGSsbxNtIWOs5HDJ47sOHj4pUp3uV7PpN/f N3f1B3/pLgSe1m3uWaixvHlC2ronhSLR9R/5GGYvBKGo106/vGnri1t52Pf+ez9vAnPGoCvsJV4I Rlwea+c0NTl0w8iEdf3wqVd+8L3vXrdh7e9/+bMQzGMUoIy83htgDOclZiyhDkBHX0fefvE2MEPC 9x4u6Itaa41xglMmOACtwDlkECRpQimkJwh4qjNlDaFEcN8BhGLotN65c+/DDz2+97UTmfFacT57 oOuGa9atv2z5jdet7KtCUBgDB8e4JqzT2XMAY+DGQjCkacPjCecYHdxVO3osGx8eHjzY3eV1B+LM 0OCGG++av+4DEPNhfMhCbhm3E6O10/XJoYKJhRctXbkmSzF+4NjB44dHhk/7ULJYXLJwWaF/9og2 QlQSJD4rNtIs9OcZ8MnUPfXctkeeeO7AkbNxkhud9feMGCDk7IKE0zm8yT3rYoVBzJDwPYVOVTjQ Gfsx6yylnFMASDNDCJWStOM8DKUMAgCJssoa34vSBIHEWB3Pv/DKP/zDjycn4ol6LHhIrOBm9K// 4g/XrVlKHYohfAmVQfqQHEpZEAjCDJyx1pEchgVUwIJIkjXHn934k3j4hNeIC073hiRp1EwohNcz /8pb4Pc7FWi/MtFKK8VeQL129Ihytlgp5xPxgV2vmujsWGpG48lif//6DdfPXnBZbnsaSSEqdmXG RCxoNJpUdD313NHv/eipPftOWni5sbnyKpXyrbdd7blGZCHsOUc3AD+r33vrwfPbihkSvttx3h2c EAc4B+cAYzRn3MHl2grOhMcA5BYilG2jJeMOYIJS0NFRHDpyZuPTz508dealrTs8LwiCcMXSS5Ys WfLRj9y69lKfOiSxKRQYITAKkjkGovLUWe35AtAchlMLWHAOJ5I0CQKP8MKpofH1iy/pIdmsavTa 9pcoJU3nurr6AQ+Zs8wzFkHoG5PFrfGzQ0P95a5aY8IpjzrOjbz0stUDK5fQSg94pEgFpM8HdYBu u13HjuzZ89rTL+7b9NLB0sDKnPfMHZjX29UdReHx4wc2bdyWN0/85qc/0tfD3jrl+TMMvGiYIeG7 HRdkPqdeEYAxqmEJGOMszW2mDGPC89E2qTKasCjTOHNaPfrQs/f/6JEwKGdJXm9O9nUNXHX1mn/1 G58plcE4Ch58GB23yoXQqlw7SM8DMDkxWqkWoXNkddgMREEATgGeJRUWVBvaUTH31g//5uw5EUYP YGjveHPYD7i1Ys2q5VAGBZ85MKOtskGgTxw/rFvtNteh17P08qsGlq5DeTb8AqSvIAwEgYRBHhsn WKnE/+RP/6YR42xMaXXWwMpFXHpnjx/LxieGdzWyJO/pihyv7D1ytKt7KaeY5hs975SdJ0TABW9f DMyQ8L2BqSSnAeDgLEDAO10xBwhJHaPWIrNop16rjY07t3/nWz8YPDHS1zOHMcaF8z35la985fob 5vg+6g2UIxhnPWIBxwMJop3LpCdsWsuzdqUa5bVjUsI2xk4c3jd4eN/48GmPk6h/wU2f+13AaMhA itnzlkONoxRtf2hLEHntJIYslVdeDdEN44NQR2wYcuj45JGTc+YsXzB/9rx114BVEBMEJcdlDmkg Oi4ZAYFXQMvimecOHz8xJqKBGz/4YV7p2bp3x9jxowXoyeFRj3X39c86M3Kq6NORdtN2lpG5wOG7 Yzx1sWSib4oZEr5X4Ky1sM5ZR2CcAxxnnoKLkzwMPM5w5OTw5pcP7N47tu/AyaFTxwnJvCCsdMvb P3PrzTdeNdAfwRlq82aj2VuuAoYQYozTTGgIDxZcw8bUy32p42NbRk4eadTOnD52xOVJb7kyENI8 zYRK4bTKG5HXCyBNMpmMUTOc5jVpMyLCgXnrYfqt6ybFcgoADknM8nTVmuu65s8C9cGCRmIL5bLN 24JIObViDIjtpJUE53j8mWduuvXW46cam7fsjIlU3CatXBBd9AKjUKuNcV/yst12aM+dt60X5Jz3 1LTAnXRIeGF31F3EqcMZEv6c8Yah/oVWnB3QC/Vidnq/Cwr8yPmN5pxt9eviTwdY65yCUxYO3Ody rJlx6YWBd+Dw+D/+8P7NW15qxdSoarHcI4Lw7g/d9WtfuL2vAgFoE0sWaygDUpKhgXLWcgvGvXZu PUkbEyfLgYHE/qcfO3P6ZNauq3wyEsYzzUBSz+StZiJK3SvWXQfiw3HqwAgcSWm1sPvhLZPNtLsU xSnvn78SokK9cg5MNLNK0Qv9grWka9Fqm6XOK2SO04CngGQCjhDHqANhAIXWJjfkj//qO5u27TOJ dKycukqsXVAKQ6GpjdM09/yIO0s4VUqdOTtmAAt0RK/2vHNsgdf9LBw1BAy2U8E1U0/4boMDDKyd lkmR13N1dmrFoU49gzuvNNZZEANLLKGG8ulKCMtgibNGZYx7IDxtJ36hAA0oA8lAHaHEgdfazWKh mgIKOHAiHjx26IGfPLR95yuFcoX6hYG5vcvmzrn5luuvuWl5yAELmzclMZISaMJ42IBIAA74FAya WBQEjWuDrL7nyI4dp/bvl6LUbLiBhQvmLd0we0k/6iMHHn7U5h5kEC65qrrutlxHtrOAi44JSxFP 7tt3vKe8qJ5p6kXleYsgqU2aIir2FD3jkMZgNCQO8LzcZiDGZ85qbTMFvwQNyuEcMqANUUuwefep 4TgseD0Uxcla1tc/p9Ua59I3JM2cJjZXWlULpXZzbGJoItdwHAAlsGz6Zmc7dzfHqGMO1FAYAgLD nKaOuRmPmXcjXi9Rp+cHtI6xF5mOadPX3iY59Rg4d6DnT3HpPGfOMeED0GnsFyKljeAMlAHIMhBf tCwKhWrL4Xs/2PjITzcSx2vDo5xiVn/fkhWXfPKzn9qwdoC1rBQ0ZzCAIJmkndomCsuJo5w4gHSW JqKE20xbF4cV/tzDD5H68YJhE2PjH/n1ryAMUTLqyK4Dzz5u4nT4bP32z/+2nr9iQhFP+h4jSdII pQNxZ4+d8sJZbW1mz5u7Zv3V6J4F7WghiDPLPKo1Ah8qxxNPbrn/p9//kz/9w1LRczaXnIOFHe3q 1JwLAQvZj+5/4tjpSVmYkxhOjOnrG5isTXg+i1uTxRIPS2WXEz/0zp4eqhRpIKKJsaQ6EJx3wjt/ qQOoo8RN3RI7hSIEBiDE0bedhzMk/HmCAPz8WoROs3IEnayJm94i1sKA5A7UFUI93WXSRjurPVAC ymkIrWE4iHWWgNh23mAkck5YCxHwU8M4fOLMi1tf/Zuv/ddFC5dC2Z5yOL+v68N33/zB26+u9gac uTwd6ZY+eJgSXjfQmjGvCKv1ZIMXi1mr5UlTkAw6zWOnvD7hcQrRPHFItWplTnWmS6UIJZ4d3r13 /6Z4/BRrtkvBwO2//wcI+h0lBelblzIiZBDAWSR5vcU23HDPnGWLIAQ4N21dT9Ooh2uBI6dSzvxv feN7215+qRGfnTe/R0EQFpDO/zA3hLFO2eNEXcsib8T4m699MyiviApRbWxCUN1oDDEmOJclWUiz CaXSyIuyLOvv7y8XyfGTh4QMHOCcIwQg9l8c+NGLlRudIeH/V9Cxgp+6zPwNI0U7Xel3bgHbjr5T Ms4ZZ7CwcElMuIDR1lERFhILWajWU3COZ5/fv+mFzYcOHz9ztpbndqCn+5K5A9deceWGdSvXXlYJ vE4wjnPbKvoMSiGecCKsBAXCuM5aXOW85EG3PanBUyQtOCqDEjiSRPtmbGzosECatCYKQbcfVp7/ 1re0y6g9XfaMKAb1Zru2a1/XhlmiUG6o2GPFJEmiMHDGkkJp+dU32CSBlADJEhOjUOgNd+wf+dFP Hhs8O3Zg/1GmqVEJE977PnhntVLRsK1mq7dYItKaNGWeZxyCAncMf/Znfx2FvammjdpkteQ55+Jm m3EvbjVlIAX3giBIWkkURFdde83o8BE/yJqtHF3SEVzoKGAJ2OszOhcw86KkZ2ZI+POFAkkAC3hw ojNAeb3wgQDEElgKWDCACfCpVRs6Czd0bF6cViYD08JjDqIeW+5oM8NkG8+/8No3vv5fBKOEodVu +h67au3yz/3SJzesmc8sbGYlw8TZ4XIpor7nxR48BpejIAKmVHpaUAtB0Bgbf+3kyZMnXjuwq1SS V161oXfNVUjrOYpByKHhGsMFliqRtbJWzsvU64tEMZ8cbjUakrCwa8Gmnduvn7Oqd3m1IMoUHveg tKWMGZtSRmMGgHoiTBm2bBn8gz/6N8yrNBMl/UgGs2yW3fPRe7UZH5i7sNbWgbCVYsk5EALmC4cs yy3zCy/uPHn8xDgjpa5iz+hErVWvCene9773nRkaO3W6rg0c5X29fdd95IadL299ZtOzKp0IfdNo ZhZyKhI6B2IBSjtlTZ2L8DoD6cVzPZwh4c8ddurRyZS787Ka05sEYB2nCTdd0k7grFNGU05AueXM CqSGOkrOTKYbN724a9+xF7bsbLbqZY+2stY999xz1VXrly6Ze8mCSAIqaRMo6UtAVAe6YZhtK4oQ RMDWoFowmVCN4cFjxw4eqA2dIlkskQ5I4zR5Zeuz68Jiz/INkpl2bahgzux87tH5A1b6RRnOXbD8 uq51t6BZ2/SD41HJE8I/dLpZmr92ZDL2662g5I9O1Lu6ypmGNQw0YqA1lb30/K4HH3n62InxZkwm 08BHcNna68KocvL44YG+8g9//GOrx774xW+XC2AABdJUSW4JsYxD+t5wI9+z78ixwRqXve1GSozu 6fNa7dEvfemuP/7jry5ftqjVNoWoHGfpfffdB6uZs0GxorLJf3rgoSsu/bQlIO5cJHwToQwBHAgc vUgK7hkS/jzhwAymEgMEoESDdJxdzplKTFf0uWmuGoBSUEup45xp0BRoxiiEuP/BV5/cuOnUqaGR sTNeKByyVSv7PvPxj9z2/htVDt9D0UfaUmHEuM9BKEDb7TQIi4QDgezEXmWsIHl8+sC+V186eeo0 cTYgjtrJoquVQr8NcSpRTYNIaZ9lhZJJX35xTpkwGtaa5Krr7ijOWoHYQBbmrr56z86t5fKsW+65 tdB7mfUiIg0lqtLFU6Saeo7QV/eOffO//eOhw0MaPLeE0NJos/65z//62TOjL27eVoqqSbvRmhj2 BV+87NK+EprNvBpJWIS+ALGAMbCjrXqx1P21b37b0jlh1Je2s6BYqI8e+J3f+9KC2bjtg1fdf//m iQkt/LK2NteKEcA5QnmSWSoKFrDOTTlcdSLsOZ+BN9LtXA57xgb/XQUKeFM2Z1POgsbBEEKmLs3r CVAKouEAyuCgDXGcG2A8wd7XBg8cOvW3f/tdC+a0CSRftWLJiqXzP/nJuy9Z2MMBbZyg8ASxOcqh sHGLMhhoy6QoFDMgzW0kKbXQ7ZqQyYk92/Zu3dhsTM5bdtmadWsLlQLaZ3d+56skzQwpSVEJK30K kuWJSOqvbH2hXAgHm7nXs9jvWYxoAMwDM4tv+NjclTfK6hzQqmoLJgPmu8TmueOHjg8dPHjyr//m O5NtB1GmvCCDsu+F3d2999x75be//W0YlIuVifHhSujl7boz9WvW3cSA3qI0ueGCGW0ps5a4ySyJ ou5PfO53Ffyo3Ht2uLZ88QJnxr70pS994sPXK2D/nm3NyZEgmJNpk2cZxxkAACAASURBVKR5EAWc EpUl7TT1/OifHnjo3/8v95w3HKcEBNAAPZ+BnY7/RVOtzZDw5wfnHBxhALVwrFPGDuMU66RFiRsb H+/t7uvcgLMkJYRYQhUhsUJUYIMj+Iv/82tnx2qnh8e01trledr+1c9/5oar1y0Y6JrdEwhAW6Nh PCYlAwEEh8nAIMEoY1DOdsajTupa1uj3CGfDrzzyT4MH90eVrpXX3rHomlu1cXBttGKNUPgyb9LF yy7r7lrA/F6bT8a1luDVyXiUVfuGMohZC5QOCEqccqDPlAYM85SG4pJSNJrk77/z5OYte+utvBU3 WxmH5IuWLly9dv3mF7czIvYf3Hdw38GiH+k00Um9IDA5emr1stm333rbnbde5wPMgXDAWcYcKB2f bBQqXU88v33wzGShvOCWD949PFQbO3bQ42Zs5Hiq1nsiWLiwf/MLR6SzKjNhGFqXt5O2FEJw32S5 9AvTayOyjgbIAcYZRzghZNql/2JWMQGYIeHPF52JCWKn0jDWUcaEgzWwFrba3aPgMqOtZn7ga43J GIrg0ce3PPLY4ydPnFJG9/T0qKw1Z86sL33xczdcuzRicAqt8XFhvaxV9woe58xBacesspRTCAWX QKUwxPcKFqSFNAL1PBPXju5+9mF39kRvgZb6Zy267pZMSQtwH0cPHmZR15n6RNi3Yumqa2hQMY44 TV47dHI8dpRVUJx/zx2fSFLm+6V223oMhtCmK9kc1mLXjsNPPfPiA48+y72qR7uEV8wNu/WOe+qt 2u79e4/8+FHP8xv1ob6enqwVWz3eFckkrq+7/NLf/vJXZnUhFPAliAIhGRimx2asXOkabpqfPrrp k7/4pdFJPPjoPxPlSi4h5tRvffl3GGyMfMOVVzzww+1pnPgyyvKUcMs5z/OcCp8JL267Bx96/hMf ugGwcZYXPAFAKSWkN31hfsY6eWay/l2Dzi12qq+pcxgBQSgAS0GpcSbRKReknVkmfOnh4Cl78MDx zS/t2rR5uzZK6wal6RVrl9x044allyxcu+pSCjggbtiuEpWVCij1SiGcdu1Gmmee5wmfATHiEX32 2MTEWEPb6pzFpbnLe3hAbEJcduy5f2689grLm2F11qXvvxUKjDpuE0wMDp7Yl2cmqM6be9n1dP5K EJ5nKWeMFcsrb7p13uVrHOkmfo/S1FoaeHAE9QwbX9h/5OjZx594ZnS4pgxl1QWz5y2q+sXmZDsM Si+/tH9svM6kTx03SlV8b/jEvoXzuq6/dv3aSy9Zt27VvD7fWQQENge1lnUsJ6yF0+Ay1a6Rk9Ga Hh1Tm7c/olzkaBB63LYmf+WzHzfGadKmkJOjNWcsBay1zhmtc+HxIAiyOHMG1Wp3lhkDUJDAK2ht CSGe9N65KiYAMyR85zFNvw4siIV0gAHhIEhSZTkjgjlaMAATmGziD//wz187PEgROEgh5GRt+Itf uPcjH35fKPNigRSDQpy3GC94lIiIqtQVfOZ0kic1ZnMe+YEPIEHt7OE9m4eO7qLJBOc0JsGeXTs/ 8vnfAufI4vbhV8b2bJ0dkVSKecsWoxhBW27b0I0tTz5QGx0sVfuXbXh/35INYAVnGSGGCrb08nU+ M2ABEX3jjbQQhJzCAv/Hf/zaQ8/sgN/TaJhGU83un+cVSjfe8aFtO145cOhQ1mz7XsQY7ypHrcZE tVKojY8sWjbw5V/+4t13XttVgtIm5IzAEmqzWFPjhOAAgQNUDkEAUE4Cjv/wJ3916GgNohj4UZyl zrSjgvuVX7mZUiQOkni3f+Cqr/7lg9TKWOmoFGmwNE8d4WEUhSLsLbtcGQ7kynLBrIUQxIFkWgGg zp5zvbCwF69XOkPCdxQXMhAgcFoTAggKKOOcCKUBmil27Tq+Z//RzS9ue2XXvmK5lCVZFLGrNqz+ yN3vv3zVvHKAPEEg/DzLkdiqH2UGWlnPo9Q3QEZ45gUOFO70nsnRoWOnTgwPHTPtMxFXITE6h+/1 TTQNZITcAO7gSy/0siQwJuaye/5sZG3AxMOnt256dPLMvnnz58277Ia+VVdr19tsm0rB9z2Z67Zf 6AJEO8mcaneVigTWgR46MvLCSweSPCTUW3n5SkpEu902Tnz7v30/CApM2UB6ntQT4ycpsnVrl83q K37xC//7vNle6MFoNCYa1XIIl6ZpuxREMuQAhaVwFsTB8wGdO5sTPPb0kf0HznT3LxufbGliwsDp ePLXf/OLWiE3DS8UyoEStNuJ8EtRMTh99lRQCgZmzyoXq329Ay53r+15/oknjnzhF98vBUsyHUpO CCwc56/zgr718gFvF2ZI+A7hjfQDnHOWkJwIUELACOAIzoy1H39800MPb1Q5nazHrWZcDMNli+b9 uz/4vbnzWB6jHAC5FYYKZgmlkjrGGQDJkVlFQYFkbOhoT1/UGjq+Y8sm06xPjJ7NbL70krmXXnmd bdeGDr9Wm0ySWK9b/z60LaJS/eC+4eHhVSWZxiO5Cfbu3lWZZAcOD1FnGuOT6666adGlq9G/zKKa IpChhykFD1Eg7RxhUCI6gW6301zBHxydnLt4dcVGqWZHT5wRQkxOTsatpFLuJyaVXt6qj3hc/Ksv fvjuO9/X20UlQTGA0cib7SgqFKqlLEsoQykoAchNzghj1psq9iPQzsa5oR5+cN+DUWnO6GhiHac2 y/LRhXMKV165ggtwz1fWeRS1Bq6/+sann9uu2/HnPv9Z6tGNTz995MiR40eO56mKRDI6Xhsea83u iXyPOwtjQDmjID8zQeHOrdbxtreNGRL+fNDhpAGdNIQwkid4Zeexn/z40Ze3vmKM6650O5uXS+EX f/ne999y7by53sRk09NeJZQ2B+MUFnHcCks+CwBoZQwY9SRVaV16tqfb3/XoD0/s314ulpI2v3T1 9UtXXsLmVNAcOvT8kydGGoVSX7G8dPH6mydzv8JKoznhPf1j8ajPXVHQiZNHTw+2WqZQ6Z9/1y9+ 2S9FKJQ0yonlgnq8o7LUXFAf4L4U7bRd9QDnOIgXBUFX/1ArOXF6OE6p5xca7bYgXiWiMpsIfbVs dd/la9d97hfuMArITMmDz6CS2POlV5Awuc41Z5xR2akhYYx06KdzWK0cM5Dc94LHntt/6MgpP1zp nC4XA7BGpugHbr56oJ/lWR749MixY5tfOPjs8/tPDblrrrlu1sK5Dz304PjESHdfv7XWGhtFkYlb XV1dZ4dH+rsjRuAc8jz3ObdToiU3LaWYiYRvMy6su/sX1+Y7b883e5O8/sn5iwASANBwmJKhUfv6 cmLEwRHj0JFIKYIt2w89/sxze3YfzDPdarTzLF65dMk1G6685647Z/VxKTraNVMKTMiNsxmDZzMQ ZsJyAJIZlTLhCcYNHECkJ5GMAXF9cN+8MHVJXC4vWXHFOnSV26/tPnDw1ZGzDVFd2LVw1bJ1H0B1 XohiU+slazaMnNl3au/RMmc6o7PmrQiriwcWr/EXr27X267QP5Fp6hUZJRaIUxQ9EE6NEQzUwZX8 AtI6hARBI8YTz2zef/gklVUwkVvCRWjSvBxFtZN7v/q3f3bp2opHkeXtohRUWA/WaS18Ce1AKMC4 LztG9MZBCABcG+sA7gEeUyCptZnBX/7nvw0LfaOjE1HUp1SWtesDA12f/ezdg2fT5zY98egjDy5c sHRkOAuiuQOz/f0HD72w42WvGESlrmYrDvzIMdJOWoHkg0PDFpIQxIkpBiz0JQBBQG3neulzIlJH 7EXJjb73SDhdqQBMc4i+Zf+iI6s/P1M2VfVpQeCUIp4AqIEznSpQQEF58KAzySwsYChAQfJEaRlG aQ5jWoyFyrLTw3jo8e3fv+8+67IgkGmeM5bdevvaz3/mnuVz+51TIeHEQilwDw7gnh8nGWceHJiE dilHqtMGBwGnyUQjqAw0Wu2oKGgYuMG9NJ8o2WHVbM6dNSff9cyrhw61IerG2aD3+rs+XupbYEU1 c36mjS9FruXVt326ue5a1ar1zp4LLwQLkViTMSurjZwTUWhn4BLEIsnAPAgCa53TlhtKAIhynmZG SE/i0KFTgVfJnK9BrMrDqJomaNeTYslfc3kloGBQBQmHNoXJjdWaURvFKY+KbHjElUrkwYeeuP32 91VLsnP3Qk55oDXaFhrwM+s9+PCLtUlnYTzfy1RNChp4orcy8G9/75u7D778yU/f+/6P/sb3v/OP actRdpLRcjs3EAXtJJeBZSrWmlFQjyvLGIte2n5w3aq5fsCMgrNWCGpyOEOJA2XGUa0hqQVzljFK LkJUfK+RsINzHYzzTuhbmeTS6TBHpjRNIBSwxJtKmTPAWhhnKOMePG3hcQ+uBaMABirBOaF+M4X0 cehg69Dh3U88tf2l7fsLle5mu3750oVz58xac8X6DVdfunAuY1AO49x1VvmD7xfSTHke0VqHgY9c gbaQ1dP6yVpzuDk5euzoSYLqmive5/nlQugTKOTJjh3bGu3JWRH1gsKxwVPjh87Kak/U3bNi1bqB VVdaFBQLcy2FkIGEdY4w31Lq9y4rzxEAcxqtdhqVqnFqiCf2Hzpz4LVjZyfq27bvkFzc8r4b1ly6 tLcSzekNdGZ9RuGc1Y54Huc4XcOWF7ZFvcvaCtIPlM5qtbGeoDuSrCDLgsMZKJ2BGC6oJswx6aif OwxNmqfu37Rt2yvbd2y5/YPX3vvJWy2sNYrlnucBMLlqceGnsI7wv/yrv1Omt1Cu5MoRq3Pd7iqV uIyYoBuu//C3/uFxAVkqVGKd6FRXK8xSUMqsoe0sDwLPFzLNYiEJIUyyYrXSpyycRUFYAHkC6YEQ Rgix1hpjCCCox2Gt05TIt705vgdJ2FledloUf77n5BteACAaMGAW4AAx4Oes4DsFfdQ6TrgkDJYh mzooZRDcg2QOVMEm1nKGBx48+sBPnzpz9gQTrtWcbKvR/rL64ufuvOemO0pBSANoC61BOZEICVGE UC8QiTHME620EQhm200qjd2/+dDOp5uN45P14VK1qySrpydkc/6C3oG5NGAgGVRcq9UKPfMmdKOd Kq+yYtlVa2etWoWCZ5VOk8wxwb3A54ICWeKyLCmVQ0KJdkmcGoiS0vBLhRdeOf74U5s2PvOCDMuD Z0d6++ecGR756D0fHhnLfu/f/gefua/+pz+d01OkMpEeJZYlqWI0yHPnLM8SI3hILfc8OtFsC2om xgY/8ss3EQAMjEWd9S40MDaBx57adt+PHm02XZ5rOBVGfatWrXEOzmU+o/AAII7b8HwH3yH41vce LXbNbrYLtUbbWLdmzeVhyNJWa/DM2STN2tb4cpZKUm287p5KHKe1iYmgUDKO+EHoEmozS2B9JwPw PE1inex+ZffdH7wsCNGKxwPPl0HROGirjHUMwkF0tIPWgVh3MSyg3mskpOdEgB1X8ylv87fcGdPd V2vAHKzurGQOGGMl44Qgz5QgljAB50ymWUmcmUiqXUEKcfzkmLLu+ec3ff1r3yoVlnFeaqXxrGrP XXfc8qE7rl65qMiQesozGmbKLGlqSEmJbLRSysFF0GrUK6Gjtt04c2T35o21k/sWzwqFS5bM7m5k ivji3l/7NZQXm5Qxk4ElZw/vbo4NER+O+AMr1i//wGcR9EBl8D0K+GAA14bAWMLgSyJ5GLc187hG MXO8NoEtL+977rnnXnxpm1Zg0u+v9i9ZucRY+ombP3r/j+7j0JKAOvVrX/53Tz3yN3ErddRJUQjD oJG5+354f+CFQVhoJCbNW4TqnkpRpTGjbsni+a0UlCBJAIITp5o/fvDxZ5/b3ohBRUl6RSuUTia6 e6KFC5bkCSqhgMthtNEqDAsGOF1rppZtfGZ7K6ZBVL3qhqulL44eO7T75W3EWZ8LSrnTTHqSC500 62m75vv+7LlVCzE8PJk4JWWotaXWSc5UkjCreypVm+tSCArrBYwSHadN7hcJZ5ZQDs6ZTwGtwWAZ ZxcjT/MeI6F7PdNsp+x9NIU5z3mSTsXJqYEitcSbch6BdXAMDo44C5/yzoidSU9rBdNiwlDfm0hd tSt4ZNOhV3YdP3pk9JWd20PemlXtLxXtddct33D9uuVLl5Q8JhTCFHA+BJiENcgzONZmLGfEOMhi VHUGlEAy0T69+8TuTY3T+ycmG0tvuKPSVR2YI8EVlEU0G3JBQ4V+WE7bwwXRGty3rde3jFhFvEWX rkFUaadU+j1aWzgqhFBZFng+HBr1Zprp3r6qMbyd4Mnndj/29It7j4y0c6uyPMsLd991z+mhkUYr Ta03Mdn4xweeEl5v4HNqUqpTY/Mf3L/lF++9wqKZIScQvkc3bnw6Kva0Wk0ufOl7zUacNDOq8Uu/ 8MmFi5Z6Pl7d1frpg09u3bErzUk7Z7muwo8MWKacyuK+StfoxKmVK+cUA8By5AmkYZw6i1Zmu7t6 fvzYnoWL14VVe2Rw5KVt29OsWW+MdlcjnxOndBq3CzzUSdu5JOTqtttvue3O25gn/+9vfNchHq21 CaVp1iZGl7orpd7K6qVrjux99fSJ4wRQNmUkB4QTLjXgfgAilIZzIABlYGDnJRTeTrzHSIjXDUMw xTzXqV3A1Bt82u1lardzpCWd+gXrnOtofdFuw8KFEYEUuRVpFluQZ5/f8bd/d99Yi6ZKGCW7it3d Bf+eO6//wufuqjfbUanQbDcLtBgEyEZzryjTDDKA4BAUgAFywGbWGh0JQlW7JTB+7NXHhw6+MDtw 133q46guTxvxay89PXz6aKzQIpVZl991xfUfcgAnFu1aUhuOJG/FqQlLsntekhIriqljghMHpAq+ 52tAKRTKRWGxY9/Y1//rd3fsea2VWU0DGfUQz7/ssmVXrrvy777598IrgPAsbxlHmCh5nmy0J/NW e/7c/vrImWZijWUe9xRIojIhgmar5RdnMQ1ZEGdHRvr6+j718Xt3bX/1Jz99VKnhRx79KeXduZYg njI0NcwLy9zzW0kMqrt7So2Jk/N7SpJDpSDGUD+AasHz0tRyr5AafPcHjxw60RRhb2YIEzQMWZ5B Mp20GkbrAheeVWXf/fpvfOGWD64AB+XIHYitNRqnssSEPp81UFq6aOHsWb379+x8/vnHbash3GSS mCggzSSJAsFZmCnUG60sV54ndW6cZYyCdG7hM9rRtwFvTG91Fmd/c7VgJ1QyGNrxxbMUzjlrHFyS aRb4gpMMODWCl7bte+aZLbt372uO10qlUqvdvv6Ga2+68ZrF87uvW9vLHeDQVwzyXFdlUXDkCbwe CQpKddvEnqaSmbh+7PTwcRr4s+eugG1QL6D01NZ//hZp7YnIaZ+VBzc9dLb1UKvVGghNKU18UeAc tWO72JVXKeUCzyWHj9o8m2ilLOruXbwOXYtpVvIYzy00AQBDrAYdm7SHDp569dVD23YeeGXvwZwK GnTNv+ySrt7+pJWnab57195XX9ljHPEoq9eTsFDypDc2Ph4VykzkA3MqZ0dOMUK5X2y1NCtQJkQg +Kat+5n00jxetHSlsqR7oNrd1fef/vP/1VPqoyR44OHNWpeZK2nNhecXigWuVD2uIx0PCsKYZtxs xc2h2z71mSiAD8AwOECIPElk0FXP8Cd/fv/pM3EQ9sUanBGVtZXLA65Uu85MvnLp0nvvvnPDpcsW zxeMI9FgAhaoZWblsv6xsbG1a5dLrzw6Or7vwPbt2yYJUpc2P3jtlatXzA98CqAYdGuQejuLCnzn K3uzLJszdyAqMmOhrRPMuf+HvfeMsuysrkXnl3c6qXJ1dVZ3q7Na6pbUyhIKBgQiSCIYGQwG48TD +Zlh32H73vveDQ+csUmGazAGJLACSiRltbrVQR3UOeeq6gon7fyF96O6JWFs3/uGLXiDcdePU/uc savG2Lu+eda315prTq2J+N+FmX9jvIYIceFLbQaS7IfLozNEwRklPFzYplJHYB0MmCFOM5EX7qWt ex58+Hsvbj2Qa8F5pAs6PDj0gXvuuvm2yxwQefAU2lNTPT0VFCUolVzGcZd6kQjQSTPf56lrhwwc +Yntm3duf6awZtGlV7K5lFEC09q/7anp0X2ePtOIvOlOlpuUat2jkHdaQVTNcgghL7tyPVeKCwtb 7Hj5YFCfM2v2yOxLr0J1bll6UqnpdhlVRSvRKuCW0z//3D8++cymNLbNjiYs0Kp2/U23HTtzZrLT OXF2n826khJJjAUtAEZsrRrkhda57e3pmZqaVII0O81KvZZ0JvM8r9cks5aApg4vbNz6M29+276D E2NT7Yl2u9DYtfvArLnzy5Q4azjnzhTW+VJ6ZZk3mxNKskborMuBFtAmNP6DP/q1N9603hloCz7z P6FU+JVU4/RZvPDiy52YhHVJnXYmr4e025zwVXnHm2/6xV+4S3KYGHUJSWGKLFKsMDllquGJ669Y +53HnjvW2XNuqlOv13XaUTS755533n7L9QORChUI0QaktITTyPdJVmLXzj3W2nlzZ/U3AAunC3BG /gUL339j/PSD8BW+GCEzrpdlnidSBIQIODozup6lmlImvQu3mJRlmTlnpAxNQpni2jgDyyTtWmsp O3hkfPv2fV/56r1jY9ONRi9janZ/fcnii9auWXbXWy5j56UqnINx1kWVWmkck1wXhRROBWVJpgqI 1LcOThLB0cX4wf3PPyx1LkRl9bJ1eaZYqFBkk2NjJjUqHJrsxEHPXFqrj0RepMSRQ4dHu1nKK71z 1jQWXJKXRIkoj6fW3fJOXo1ABUpasv7c8TyPK5Vwuqk3btt33/3f3bJzn3Gc+/7AwEAYmJ6evqGR +dt3vdTuFK1uGflUmo6gOQHvHxg+evwMKUme2mpjsLC0052SgijFdV7kWSa4WbR4rs7hezRzoAS9 A/P+8m++TlWvob6KvLjd6ukbzktSlFZIbp3LdeF7tNUer0UqUM6kkySLh/v91asXv/2ON1yyfC4D dJmVWRFEVcyMzoMmFpbiwUefaHZNrT7UTpIwVFbn504f++Pf/9jb37KSWgQCZQmvBpsWgGScwVlX OslYnrsjuw8V0x2uyMKBvnnz5lxxxeq33bHWEyAANbosYyZ8B0ppBYCz2L8vef7ZDYzjTW+8SVsI Yn3JAGe0ZuzfHzI/5SD8EcamdbpQygMAZ/Ks4FwyRj3//H0oS5flie8LITzAau2IYK02mCQiJJMx /vrzX9nwwlZwOTXZzbPC9/11a9fcctM1Fy+ZN2+2DwcOQ5HTGc0YSgFZgFnnOHG6bEnFdfus36hO tM75tf5cM0EryNPJE7tD2rIOAyNLQSpK1NJu7Hvu6vVXY90KcIesRL0BwZG3X3722ZMtqHDOklVX LVh7LXhY5laCi7BGhYRUgLCMWya0QaDCP/zj/7b95RPj02U7EzToGxgYue7GG3bv2Tk+fubAkcPH jp8oclur9Zi05EU6WLe/8P73LVq8tH+wevBI8msf+91q70hz8qzwI0pdFIZ51gESJVzosZGhxkw5 N0tiK8Nnntki/T6wHkdZXpqw2tduJYypvMwZ94xNo6rXaY7Omd0zOXqq1Zz8uXfdcdedb+qtsP6B Gadq24kn6mGFCQFkAAFz3dxk1ssN7vvWY0E43OomnDFbdj2RX3HD2ttvXqkMfAkGEJtyJeATUO2M JoRzwuBIqMiKJYve/ba3zFuwaNmK5QsWSkFmjLutoKZkBWOiMAXgCYZmG4Ljt37zE7DkFz/y85df OpcBzmYgzGjL1L//XhQ/xSD8UcI0AIATFsJYozUTVPlEl3lWGk8FzpGsyD3lRTLsxAUpaBCI3CEz 6AJH97c+//kvbXhh8+DwrMH+2WfPnuytVz78G/dctX51b40yoNuZZhaScgpz3s+HEpwX2IZ21pUt oqeKE2PTpw/s3r1pqjl5yfobLr7mrbA9cPLs6f1cJFkh5i1YCOsBSooEVCOsYLQFIzE4Yly6d/+e w1u2RF5UHVx8yeU3VocWpQnxfcapdU5TKuApOALHz1ublBhv4d4HNo4svLg2WJszMGf5JWufenbT Z7/4ld6eOnPap0GZdkjeDSvu6uuWv+OO29avGex0yyAU7RirlgS3veHqF3ccCEPmqKv4wcTkaBTx vp7KskUjq5YuXDZfKOPKIqmE4dkOjh+f0rrKRSNOEkuc54tGo9qcnuzvDdqdCT/gaTIeBQVH8Xu/ /f53vmkV00hjF0miLDrdVlTxQhlQwMGUJnNGS1nJC6Z89tGPfjLN4XnM87ngzpnUZZMffN+vNEIo wBa5sblUDMgdlwYo4TwwIlhZGiH48iULly9ZFEYoSjADmEx5BDQvi4TIAPAFExaYagHAR3/5kwR8 zerlb7zlRgYAhbMFqCKEvk6aaz+1IHxtkNe0Aq2mlFImubOWwHHBGXiuUwvClFdYGAcvlA4Yn8Te w6eeeGHL089tmp5s+1L1Dw7NnT38hhuvXrZ43upVw6EPCsRJ2wu83koQJzELQlgCIkAYnHHEOlAA zGZl99TO5x+Z2vtSv29YZ3RE8vbO509nZmTd2+CSTueMcwlRA2poBIQ7mNK09r/0THZsj55sOxOm lB3XU0bS+cPzRgbnXrzmegR9KJjPZJblnueXJqdMndcTtnCA4GAEE01cddPbm3HuRDjR1l/52gNe GPX0DjBX5nGn0VDrrr7kbbe/Yc2qEcXOpxQnTJESX3CqkBfx5NR4pTHc7LR6+3uGh5cO9UcTZw7t 2rbhj3/3Hl3AZ4WGKWyZpGRiKqkPLB5vFUQEBLHTZXs6bkRq7MyeSiRmDw7f+fZ7Vi6dv2RBJIEi to2QhjXSacaMeLVqDQAVaqI5ISSCQBibl7DKD/ceSiamE8eEdY5S5Pm0z5NlF4+su2Qg7xSqIokp qaAz/t6WcQcGzizAKIU1sKhXqLGOUmJppgSDcEXSlh4XMoytjAujPEGBzVt2f/vhJw4d2Dd79qzf +s2PzR2hSZZWPRDOCECYMIaw/92s/18P8s/24B0oQ1lCSIDR8BTlkgAAIABJREFUJMu1KzzfMwSM qcK6LDe+z06P289//iuPP/ZEpWfgdLvjVyJLi/XXXXbP3W+dO6snEC7gRDBbJClXQYV6VEtQCKLO dxwZAGhQ60CIkzCUJMcOb5k6vGlIapV1Zld5keVFc6K1ewNnJauJJB/Xxg0Mz0PPECQnpPjmvZ8j 6YkBl7oid7qmWWVwsH/tDddXa4NK1iF7kTPnOBGKaluYnDHiYGZ0MgkFMxYGHqO7Dx7Z8NIevzIA ZttdnRWeEpKREmX8Kx+56863XlFRQK4rAoqhzG1ctLwwEopPtgHg9NmxeqNv2apLV1xy2Wc+97mh 3vDQntO6M/q7v/GRhg8JEMeSduY3qv94//1RrX+i2Q2ifk1KTrkpE5hu3pn42Ifv+uAHr1MUzkER WAePIAqp1bkxtloLHVAYFCWkB0cbMmClS5WotQttCL7+jW9PT8cqqBqba5Nb0+SI73nfB51BNZJp u+NHIaiBTSnjBUoK0PP5ygrmnEkJJaVJFRNMmDjPrSEAE7Qy3S6MUL6PTVsO/dVf/vXERBOODc2q felL/7EaggEedxSOgGpjOaPs9Zmm+KkF4Y+Gc26mQVFaTSwnDMLzOXwAlKm4xNFjZ3bs2rfhhc0v bduVF6bR6KeKrL985Xvee/eCOYOz+2e06bWEhSkALn2OMqdCoihybVTgw8DagjJpCAzgCDgMdQYm yadP90gEhCvmt1qjvicZCpdPHd/xHa+3RrIcrD604GJIH8Qa6LlzF0a0V2ZTZTtbtPCyyuI1YBIq 7CSJUo1OJw9kjSmZdVNVUXHRVUxaEFgnXl0otijoF770935lINe8Mx339MwKfE1cVsRxo0KWL54z WAUHkiKhVoJJiiKqVBz4ZCevVNXGlybzwixeuvLAkeNPb9xWrVScM4LRW2+7+fZbb7KZIRJwpF4f 6Bj30o6XkwxBVI2LmApr9ZSkaTV0Jmnfc9d1tmvaaTxrsAoLZ0vOHCUOzGhnNUGr47yAUA+nxjE2 3ty8+em4O/rBD95dr/Tv2Df93PObo7D/7GQnrFVWrFrKSXP54sErL1+mOODgVyozV1s4ysAowEEZ mC0tKCOUE+dgSy6chS0BK31BKhY4NYV9+84+98L3Nmx8oRtPTzfHZw0PXrx40cd++deiAGkMKU0g WZq1fC/kTP5L5OJ/e/zUgtA590oydBfCopzuTPTUGw52upv7foVRnDiuDxw58eWvfOPM6FlQF2dJ u5usv/bKd7/nzgVzhkd6wlCev/WdbsoYE77STpZF4Ywus7haC+FB5Rlc3poaq/U0QHxDKgagyAly FCk6k4d37w6JS0S0Yv11h/ZtbnbOaWYqggTNMZLHEespq7OGZy8FRKELx/j1170XLofLUJYojC15 qUPKAh5EOWilEpZxwbj0Il+jFDLMYBkEYWSG8gNOrXETrZSxyvRUd3h4HnFZuzlRjfwsnvSFCYSb O9xf5BAS1UrA4ABDFUuyvJsm1UZ168tjn/yLz3UyO77vaKppENZBMD011Z0Yf9edvz/UQzkAnQMK BMaQ/QeOVBprW0nOJKxrWzvFRbl4/vw33vimgJlGxHi1WiSpFD6YSLpTlmimGLjSgFchR0/jxc17 vvb1b3U7zbR77mO/+oF6pT/T+KM/+q/tVlrY8Q999Je379hx7OgeTqc//kvvFBwAOu2kUgmcRWFB ZGSgPVBYAkuYodAAIwBzMITKqaQbBAMloXtP5g8+9PQLz+2ePNcVMFqbNM9//kMfvunGK1YsHqCA KRGGEIQA1hPqPI/KIY5tFNJ/dyC+/iB81a75X5rcs//k9AsM6Vcfgck/OeO1QewPf0WdZ5yR804f M2cQa51zMKD1en8O12xmjFfPjOHLX7nvoQcfUUpxzv3Q83xx401XvfPOty5YUCkMIgYJS01BQSgT THIuRK7BOQFUHhfVkKFz0iWTE+dOHzx4sHD8xre/G4AFtWAMhkEja5nmuUhKm5eqNguXXL9o0fKn HviaUPn49NmRem8SF5pF3OtDfRhOFgW8INQGOleeqIK73GnpBSbD7v2jrez05WuXuzzxggBOl0lO Q7+wBagA6ExrbWbqLQeb7upuaqvVvnPnzgVBFHnSFmlPFDid2qR50RzOgTzrBp6wcA4l4CWWylq4 /3j2J5/+6qmxvHRBoZnn+8TppDXRX+ef+9RfXbaynsXa5zmTCgaFxbGTk1lhaNISUuVWD/Q15s2e Paffe/rxBwcq+XvvXM9QFomWyp/573JZt8ylpZlu5tte3v4P9z26Y+dR5dU54Z4Kcs2uvu7mboEX t+zpanfLW9/SPzTvi1/6bBBIStJFywYWzumTQJbElUpYZlp4XHKqX1kF2oBycEADgNE8c7zQttk1 L7y0+zNf/Id9e09Lv68SDPq+v2Ckf83qhb/8K9dZB6PBAOfgCTAgzxIKIzxpDcmL3PN93//3RyBe dxC6Hzl+FZOvYO+VA+eA8tV2On3Fr48CVoOxH/4jDqBOoyCEGOcEYReUzKkpCiYkAFMaRxnl0JYS CspYAmx56fATT2zfsePQ2dNTadaNQlVvsGuvWnXttVesXXMp5yTtZCzJ+7wZbwJVauFxgjThgqAo JQ/i3HFJAkVbh7Ye3vgwj0/pvM2lN12oonm97FtUph3frxWwRmsWeZvuf4oZQlhYHV4E14Cs3/ju Tzz21b/hHj9BOwlP/Ub/JZdfDiLhPFhPl6ACJRNEwAE7D0xu2bbtmWf3HT16ZOnS6lVr1xJWgORw XASqLF0gPOPACKixhFljC1CPcHrsTLuTmNwaL/SKIlEkoIa6vDBFes0bLuEAg408oa2mlDroHLkI ok0vT3/2C/ftPhob189FRcKauOOxTuQm//Pv/M76lXWbxlHAZmaVZyYu9+4/AtB58/pz4w3OWjB6 +szpI1PbN+yvKrp67WoAGSAD32iAo7BopfSp57Y9s3Hn4eMTB4+NUhF51SXOGumTM2cOL18ym0s0 O/F3n34ymj1y/5PfE6AqIoIkV1y27GMffl9AwIxTvo8yE4rBGeKIIMiLDFJqZhjjWQmiYAm6Bg8+ vOPZ5zd14vjAgQPOGGXZ9ZctX7f2knVrVi5b4lMHq+FmnqUdZkYGCaC8YGZ9UkZ9nwJ4Paoy+Ilt R2eML8krtGn7yscMzgAzn9ALOMSF69cGxIGJC0mVEE6Ygy1LQyTX2lptpFIW6HY6fhB0syyqhKmG A0yJbz/0/Gf+7ovtThapWYwGjMhrr7nqXXfftGb1SEVZi8wh5/C8qkfhULSdc1BKKQarAQMwEOec UYyYPE2aJ7Y/92g/ptLm8UBZ5/zpXJ46tG9h30UVPzKABCEw9tzxdnucZxlkMP+GW2DDnPtK8je9 9+PPPPQPUYNetmRh/aKVyVQOHqUpMQ6EoNmGjPDlrz244YXNe/af9IPZ09MeIzIMhjopar6wOqXO gXPOGQBnwNjMjTWMWg2barpt1z5tnXOOcQLnyiwOOJeSdJNk8dL5Buh224SQMKgVQJw5J4JvPPjC V77+vWYXufGt42meeMJWApdNnf30n/zB9VeOMGfgg0CDcm0MmCgtkrT86C/+6pPP7Tx56uzBgyd7 GgPdVnOwd64ujg7Mmt0xThKRZhAMR0+Z7z/51D9844FuAhn2WuJVehcANMsSq/PJqdbHP/6rkadL C6ft97//fVIZISbvbdTed/c777n7qoDA5pAGzhjHHBESWkO4LEs832dcTrWTqFLrZHAUo2fxmc/9 /ZNPvaD8iueH58ZHe2vVD33gPTffeOnwAPIUgQIFCLEOzjlHQIgjlLzWBAavR0/in8TrDMLztnuv xPnruTBGRC9sUV+5TsucYedPeUXegwIw1hFKZjKDBjSxxhpmoAiDhidCOHAGQ6EJEuJELdBgSoRb 9504c6r19NOb7//WdwaHB7tFPHtkaNHwyKqlq6+99rqlywQo4qwwTjNCLLwSSB24I5H0AFtY4yjj 1METIEJrp4n2mBW09fQPvmbSidFkLPCq8EmetAbqPRMnTi281FqBzBTOZCFNzp45zKQh3Kv3z0ZR wGso6qfd1PeHr3/rLyAgaDfh6kFDAT6UOD2e7jt0ct+B/Zu3bT4zdkJbaCL7hoYHZvcP9vRQd67T Lnt8T9tMMgkDwmAdGJ/ZiVo4A2YtHOc4c/YUp0QbTZxzyCgHBG8M1ubMv/gd776lAHhUZ8Cpc9ix 48zWl7ZtemnXybNtQz0ZRIU2UeSUpJPnTvT09vzq7/zm+itHxs9NDTQizpQtDeWKEReXXSqihx96 +NCxTsl6hN9nTVxaV633HD15cGTYu3jFCs6wacuJw/vHN2zc/dSLL0V9Q61u1N/fTyltTU25tHPR gjn9fbN11p07d82Xv/SZW2+54a53rP259/2H5YuWX7523U03XLdkYZ8nYAuUqVaSSwlQDoqihFCy m5VQKre5pKGltX37m9/5/rNbt+06cnysGydeGPQ01IoVc6695o71V1zSCKC1sdoEHueEOmsBEEJm Kgj/fFH9dY7XPRO+sv38J2NY7kdeMeNEZX/43Bn3RgLGYGFnVD4sKGA4JYzOmFdRALpAifPefoYr C2zY9PIjDz++Y9d+XRJr2MBQX1QL3nnHB9502w0XDwVlF0oBBt2k8EOqCDsPbwMG+AwoU511ZaVX O1eYXHCvBNFce9Aozh178TE9dZC7+PJrrtiz9+VO1obRPrGtiTFkXapqkgohCEx66viJNNdZaa9a d40xglEPjvpRLZmaCmqDyApU+lDmmknLxN/f9+h9D/7g3FQcZyVjjEm1bMXKFSvXPvnkxsnJI4cP 7F80p5KkprSMEQHKZmRsrAVjsDMUHUIAlK6cjsWLL26U/oIsyYyxhNoPfOhDWzdvOnv6WCtuF4AB jh5NvnXfIy+9dHJsPAEVlPmeXy2NLgtTqfrTzbGmbt/x5ut//VfuHI6QF1oKwjk1uWZMANCGeCI4 cPx0mmlHRBRWY2MHZw1PN9tEqt6BOWk28eBDL/3g+w93m21nwlbbqvpI7pRX9TqZTtPOpZeu7qmG renxo0f2dprndmxtK+5m99dsji98+s9CiYAC2nTPTUWNukPpVcR55whO0twIj3UNciokBSD/8m// 8envbEg6hbHgymt3pq688vL3/uxdy5bPUgqcWcXLOG2HSgpAEAMQBw7Q1yLwvPT9jxGNry8IL1RZ 7GuO8a/kdwpc4CVciBkQwgLOWWNMwRhhVDJY7bTWDhBlYRSPMgumMN3F0ZPpth37v/q1e5Mko9CM q95e/5JVS26++aorrlgZAwpwAA9dmmbKE1EkM91VXORZpovSk4HiFGkX2RRHZpKMBlXDaYYycUVE CMXE+KFn9256oD+gy1euCFYsCsZOdqcKl8OUSZ6P5ZOnmFfN4WmX2Xa309LV2px5sxaqnotYZcRC aK2l4EFPT5loIUKTwCiVlth94PgXv/bN6ZjUe2dXVW3ZipU9PfV77/3mtl2jgntlyQTokaNn0twm cRl55xEIgDE4B+fMjJCp4w6EnJuYcs7UqrTRW2GeXLR4yV/81aeVDKLQX7nqso3byz/70//n5MnT nmxw1lvQivIrzXbMLMIocjTtdtv1HhV3SkI7fRFyrQOmG/UKjGVCmJlxDAkDOjbenZruBuHAVLeZ WZ6akgu/1c0DqaxtfOnvvluvB61u4inu1RUMCWtBnpWr11whJd+3d/eePXtM3hWkmDs0cNGcFT9z 8/q33nKZx2B5wax1uSOer7we6NyaHMQanZbQ03HcU5/Vtjg3VUxMus994b6nntwahWGkwKlr9ERv f+ebrrv+itmDHoDCWJ9R5ygjVKm6pDbPu45bAkYIBWGvhdyMC8W/NxT+tfhxPBP+sNne+aCvDNf+ k5NnZFxm3rxGzqw0JWfco74DLCwBF4RD8CQ1KvI1wZadB3a8vH/LS3tOnW1OTXe1hSnKd939ziuv WDk4ECxZXCeAgauCpMYWuqgoqSIBuAKxx23SGqsEHkKOrJUeO3r6+P722JF23g1GFl1y7c2iOlyC +EQrpHp03+EXvz/gO24zX8izL2xuTSWKeuBVa5gSPE2ma3Ce5E4rHjVWr72uf2gQ1cE0NciJUBLE xWni+QEPJAxoAMegSzz2g+cvWn5Z79CinbuPcVF5ZsPusbGx3t5+QliS5PV6r07apmwnaUmYx8/X qYi1IAyEAISYIi+spgSMqdOnjs9bsMjC146Pnzl36tREX/8cbdDutnfuPrL1E/8JTkf1kU474w6F oaZ0Ya2nMz3FpGi1zsmQpN2OoOTZJ58kv/3zEeccVJe5LbX0fULABUog1Th55py2nslZtd5XU8Hk 1LS2ZU9vLyxpN1OAjZ/rCOElhRvu77lq9YrNmzdFAd/w5COVKNJlNnni0Pt/9l03X79+ycLB3hqq CjbNSchI2YHyCOGu6BJG4UkKP9clF9XC5F61tmHHgW/c9/DRoxNHjk17Xm//wKyhgcZb3njl5euW 9PUGUQVKQNuUwIRMJXGrFtYAah2FY0rWAAvnCGU/WrL/MW9KfwwgpPhh7M3gjsxsnX44Lb52iPY1 n1kAlCkHZh2KwlAihAAc4hwl5c++cPLZZ59/7LHHmODWai9UIyPeDddf9aEPvjfkcIAAsi6iAMQS lEVNUUdplqbcV3meOpsEPlORxuiuc/u2nT64M2udZdxST0oSje/L1JW3oIBkljCHidOjm5/Xp05U K6pWG/rB45tG5i2w0zp1pir7u4XOBR0dH1ezYyWrhgjCK32zliAIoZkfRaljAAhXHhdpmXCiqBVU IC7RTkFE9cz4yR88/3ilNpKmnWqlb6C/FsexEML3q2fPTs8erFEkhw4fWbf6UkLhypJwaa1loMY4 SkC48JnMbZkaPPjt7x4/MQFiuKwVZWAc0swywbnwS60pl0WeW6trtUpRwBEiJJtunqtXZVJMGFJG UT1P9Rtv+ZlTh3fd/8DGO9+4XkjKuQ9RwmjKmYFrxrEf1h5/8mkqqoT3j4/nmZ3u6a+WOp5unmGU 9PbX0qSo+PUwrCxZvGxi8tzDD91XrUpf8IGKCXnzqqvW/MHDf8wsTAHPQ2e6G/ohQmFMQVXkKEpK teAELHfIMuf5QbOJBx54/st/f1+a6EqlAmD+7JFaPXj/B959w9ULkszBpJKnofAoTFrkoacodD30 gBKOwhLnuNZUzNAaXj/Hs//l+HFkwhm8XRhnnwl74S2deX1t+qcXzqDnLftgQR2INigLcM4kQzPG xheOPbfxxU3bt5+ZGrNlUeTJbbfecPGS+WvWLF23ZokAKKB1RrTh0q+GFBYoLARHnhPJfaZdZ0pE 1HUmt73wYtZtTZ86yFqnhsJysFZ042YnISYY6R9ajlqPzq1OM0/lowf2HN2/r1qtt3MzMan7L7q0 b2Th7IvYjq1bxrOsZ3DWouWrZN8cP6qC0NI5xz3SGEBRwle60J4nksIKSR2oJ3wCVmg4goLg13/7 Pxw61YxL1WjMTTLqq0pzOg2CwPeqALI0GewfajbHPJK9tHPHXXdcqqmGswKWEAeAMUJATGnBuLFW G7p77/GiEJVapdVKHZNBVEuaXcq4ktyYDgOrRpW40wI6yqtTykxZ+L61KIaG+4dHVsdxTDH7sUee 5ibpCyr3vG19kUFwBwFrNWWuk8TVsG/aYrJdxAXhhMogrFdUOx4ntFCK9DZqgrjli1donRzav2/j 86eTpBnxeOHArMsvXb1q6ZI33ryCO6AEYxAKNkkrjajMYkE8ApEVxgg63unW63UAh09Nbt2279FH fnDm1HSWOqNlo9G7ZMn8t95+y6qVc2YNgQIauuE5cr5ZkwoqqFAMtChSKZXTBaGScQUHIeHszOL8 ycfrC0JyQSjwwvjsBUGJC71AawrjLOecgDiQsig96QOw1jJqDayDthAlNIFMLQzBiTP40pfu27xl d56CSRIXba7wvve/+x1vu7VRUz4DtJUWRENwSOtBwpkMQoMVJdOCD0ALlF1ko+bk1i0vfDcvdLPk YyZYsXLNygW31ho4+9wDY0djGkYxDa65/R0lBA19k6RJa2zb7m2WsJSoOWsuXXbZ1VA1hPVydHRE 9C1YcBG4QnUQGiYjNAAoLykEiOE51x2u1HnLQHgAuGPW2UzngvvPbth55myL0npPfXB8IvGDhikh ueCU5VlCKTiDMwXj4EyAEMJhnFGcgVjGqLaGgOVZFvgeHIyV2146mKaE8Sgr0rBemTjX8YMeT4V5 ludJVg2ldLZsT1c9aV3W7ZyMavUid+9917u7SfLkU8+Pjk84y23pBKlXgsa+3afPnsGcIQAEpqSC OTjlBQUAgkPHWlKOGGIJT1rdUeXZ+fNmr1979Uubto6dGt2zbQsQJ9mkkOSatYt/4yM/t3D2kBBE m2Km6VOQQjJuYREpQmC4JxjLYuf7rF2gXq8/9MS+v/sf/9DtFJSopNO11i64aOSD73/3ogVDc0aU oDBFSUorBJPWgJKZhrogiljKCYeBZBzOkvMOE9oRPtMBw6tizT/JeN0z4fm5HuCC/7qZObQ6p0JQ RiiEdTbXhRKekiIrYkqIEF5aGMI4Y7KTOEfJ+Llk38Hjj3/niSef2uD5NelVhO9dtnblmjXzb7ll XV8FRWld3maeIBaS+eDIutYLqc4tVRwwmU6ZktqW3CeAObN76/6nv6ZMRxB+1aU3DFzxFlR60Bk7 svG7Z0+eK101qF9869s+UPABxwRHmkyd2vzktzudVqPWd9vd70U0CFZLCxSJrQ0vmRUNQ/kgzOaE BsFMoQSUGRADSyjnHHAaKCPfzx3yDBUFWBd4/pHR5je/9ZiQ9birOnEaqrq1hDNiicuTFmCDIJia nnRWVKuyNdn99uOP/p+/857BUBhbchDAEgJKIJUqCkcooQx5QaJooF0oQzHV7Egv1FobkwYe6e+p nz55gAo9b3bvwgXDt9x6Q9/A4Ne/cf/+/ccfuPfe1BhLBOMNY0itMqCT7tj42NxBdeTw6Jyhobwo lM8AS8CcdYzia1/fwLgvhddOOsuWLzo3eWzdumX79+76xpc/i9IKoFb11qxZePU1d69ctXTxnEiW EAxFkTOqOYWFMygKOGvBKC8doFgGTCXk4I6j23bt/cJXvwnh+covCj1v3sCCNSvfdddbVi33kxSh B0mMKWJhS18KCgFC4Ahm/OVnVtyMlxNhcBca7cRaWAdrX4Xh694J/Nfj9QfhzI9XZAYvdCUoE2VW CM9Ls4wyJoRXOAfiqHTdMvYhNVGSodvFvfdu3b378IFDh6emJ4UHyek1Vy+9/g1XXrR49kXzRnzA WnCHQFAmIjhHJHEzMwQVGqeFowSWZRmo6g3AKC2SYiIQ2aHT+41H8kT3VusDKy5G2Xz5ocdsZ6wz cZaTYM11bw9XvTmldUO47woSn9vzg4d6qC6Mu+32d8EfhAmc476MpBQOUJUANoejTgltKTGZJSBS OiDTpMojuBhWw5REKkoo4+c5Q82ObrVx4lR7/FwpVT3yKgZgxOm8E4YyM2maJ86U1SoTHsbHTlx3 9ZVzBq+vhaoZT/eHFWdNVuSeF5S6FFzMzHAUBbZv39vsZu0M0q9wpmrV3qQ7VebjoXLjo2euuWrJ R37+ngVzBqMQgqLdxfG9x3TsK9cHUZTEOShHZBIXvvSk5080J0+MnrBsKM0T5fu6dITSInUkwPGj Rxk1g4ONN6+96nvff0zr5KnvPU5dQnR61bo166+49LI1yxYtGvbE+SVQCGiAeopBACAwSkjnkOal UIpSHDzZffjRp554ZkNa0NbEdCgjYssbLl/9gQ++p39AOeuqFcKAmTkyWIAILgSIhTOwDi4AYReK 8RqOgtDXytc7Qh1gUQK5BWXwfvpBeB6FBAA5Lyw/0+chlDAJCK7EjBRsbizjNC5LbcMspadOTPzt Z76+ccOO/r7Z58anKtUw9MU9P3fnrW+8vFKFcV1POYZumeqaXy916YgD41lRciZBKZFIc7RTOOKe f+HZT/7Jp574wUOJKSJWBhLdiRMnDu+cHxIVVKwhux99ZGw65QwVlng6M1CHj5xYtVSyqKp1yijd +vR3iU4nWs2rr7sFg4tQcqiKsbybGD9Q7W7eEynmrC1S+L4DOJcMtJj5mp0ptTkJUBAHayilUsDZ 0hDGA/6pv/jimbPNSm0OoYoy0u22/UBKz6TxJGNsoLdW6LK0xaLFF1+8dOHU+NQT333i7W9at3bZ SKfbqoaB7/kOcM4AglKUBmWJXXv2SC+q+7W8NKAuSdvGxEMDQZGe/NZ9n57by7M0czqWCIlDPcIN 11/z1a8+GRcIeoM0L4QnCReTE9ONSlCthTZpPr9p47vuvEL5nrNgjBMqKhHiEj3Vym03Xv3YY8+f PLpPKUJYNqvhzx4e+cRv/8ZQ/3mOg4NLskwp/7zmL4EAjKWcgoASIC2RleLp57f86V995tx023Ev rDVKQ1ZesuQt11z1s3deYR26sfGEUZKUZSyFNFoTUEYFmJqpcwIW5JXd5YxcOgP5IYlnR87b01NQ i9dpMun/c/y4QAicfyAkBI7BkW6chlFwZqzZN1i3wGTL1GssLrFle+cHTz7XnJzYsnkzsS7skaPT ez7267908ZL5ay9ZoCScRZp0eiIP0J1OUg96oaFzJ33WLtLCIlDUAgcOp3v3Hn3u2Y0bXnjO2fzW 2243gCmMoSWUO/DCswPOkE5CCKWemhybHO6vJe2zIWlzn0zGaE/stdMHZKS4UseOHx6eOz+cP1Ib noP6MEh1qrRw3POUC5ADKlKxg9BaeV47meZKUqYAmheQEgFDmYMLAQhQW2Qx8wkImmnbD/t/8OSh XXtPRbWhwtgyb1arkRekP3Pb1d+6717fDythT2/fYO/QQDttTTUnDhw4EPD60NDCZ5/ZuG7ZnZWo lqWx5ytrtRRcGy0o5ww2x+jYWGmG2tk0FVZJHrey1ctbiWmmAAAgAElEQVQuatRtLeib28uLvKh7 ioJQgqQAk1h/9SX/48sP9vXPnk5zSlVRaC54b38dKJIyJrbYuGXz/sOjq5cMOauJo0lcWMePnZx4 6Fvf5F6D6a4u8ve/5z2LL569dvXywbrMYkQMRQGbl1y5iscBJNpKTjt5zpQCRQnsPxzv2Hlg5649 O3e/PDExUatVmChuecN1I7P777rz7aFEnTnqSk6pz2NfBGm37UeBKVIhJeDgNMBgOfQruuolSA4n zvM28GoamBG7vLAFFRdS8U8+fgyMmVd5oThPR6AgJIyCdmz7BuuTTXAF4bO//sKjTzy1odOxcVpa nXImV6xa+O53v+2a9UuK3BRpW0lMT40O9PSpyEvimDFWjXqhESdOhbIg6BoZ+GLjvsn/9H/92dSk 1iXzufKiOa6Y8mQggMj3uSsxfbJ5/NBwIFwZTnf0ymtu8QYGQbpHNj4+Pbo7ixPqDxoR7Nm9Y9XA QitJT/9w0NfHfQ+lK3LZRcQj+sDjW4+fPFOv17M87TYne+vhh++5Iy5tGNRKl3eLMpRcCTgNwS4I h1mAUcE5IS4zGsKfTPG1+x71w74sd9ITAuXk1JEli0d+8+PrW9PH5s9dOnY2+c73n92z/xj3mRGZ kCGjoTX21JnJvIQpy9APgRn6tdO6FIo74MSJE3HetTBcMMLKxUsWLp2/9N6vf2W4j9/19us44Cup s1R5Ko5j4fsl+IKFlXqv7KbtSjQQZ5pybmCNLfO0NdDjGSKc5i9u3r5kwRtJacOAB4HUGmXW7gmU H6k/+sTHr71+oQUE0Ol0rRaRItyBUlDBgDzX2hHhcRprOKpKhz37zm3Y+NIDDzzejssoquiy9FSw bPGiT/zenyqBaghnS58R6jJKUZbO9wSIY4RCOya8V8lWhIICAs4BDoQyALjA/3SvqlnOqMva8xzJ V4yA/n+QDV9vxoy1M2QXOAriHAGos7BAXsAL6cnRYvO2Pd9/8tlt23eBKeJcwPnSOQM33PiWt9x+ Q08P8hySgnu24gdA2ehpzMheQ/hcqpmF7VXJVIwtLx96avNLz2zcdeR0s1afXRjaaDSmRs/2+EJn +k033twaTYf7ldN52prs9ZCcO1eyan3hZd6lt4MpkOaxF7a22azGcI+TQ4suXj97eCVk3ZU0DOoa aHaRZ3bbzj3ffvzZx57YYFXNiyqSuiKZXjR70Jdk/77ROSN9733HG0aG6uAwACcoy5gwQSixYIUr PcKI5ICFoVz6939zw869x72gnzADVhjdXL5q1i9++D0GOHhwx7NPvRB4cxkN6mE1tUWaTwehR4xK 2tMv79qvBBQXaVL4IbfWUEo4p8aY3JAdO7f19tacGvCqA4ND1d27dj3y8sE5s0ZGT+7oqVathqOF oA4wyqOgpgCo5POXzNrx8lizNWWc9OvVLOtyX9i8rPUN0ZIsvmz5mbFmnqMeSQDO6SzrCJZ8/m/+ e/9AI9couloo3e42+xsDFIRYuBIOmdMl4URyL87AGbbvGtu2Y/fmzVtffPFFpTzn3NKlFy9aOH/d pavf+uZLYCEoYCAIWt2WrNU0CXLncpNT4WdxHAY1ALYsCSGOsBmui7vQ7ypLKErJjDglZsbc7CuF QXt+4p5gplj4qh3C6wqC/3m87i0KCgtY66ghxIIYRx2BczhwZPy/f/LPkiydbnXjJLMgzqS/81u/ fuNVawMJP5jxPoKnnHOlICBAWqaci05aCBkaq4iFLnH6VPHQo999ZtOLx8cmjaw4WaFiILcR873R sXZfrY+aTlEU1Wp1Vr+PMoZuj504ODY21ldvNPNw9WXXaheUzmNF/oa7f+3s0Z3VRt2rz2a8hoI7 y6D8iRiZxu//4Z+PjU63Olk3LuoDF3c0Ces9ay9d2RvKDU9+J8lw8PgBJfbt3Lrjv/znT/QOeZ3C 1KQjxAIE1lIuhBAguXMaoKXjpcPf/t034XmJK/pqjcG+yuzhiwWLr7h0rg+88ZZbP/fZbwpmhAon p9qy6lcrve122+PgInDOTExjoAo/kHCWUTbz7FmWlisx3S0GBufuO9HqjncP7Eud0RK8NTkuGa65 +gpCQYgVkiVpV/nSANoZQvisWT279hxXnu8F4djU2RL67rvfNzZ+8uyJI2fPns4mTm5ujr7phmvW rZkDB2ddFEarVy83mlMGb8Ywirmw0dC2KAtCrZISjHtxRgRX7Y6975vf/+4Tz01MTeRlVhRFxZd3 3f329VeuW7lsnqcQSOgSngAFyjKHdfVqLUuzHNz3fd8LWu1Oo1qxFs45JoQ1mMl51qG0llIQQmco HOfLfwQXEHieHPLqkgR+2FHyJxyv+zwhcc4mBQurFjAEbY2ixFe+/J2vfPHv+3oaeTK9cMFwo1H5 yEfff/GyeQwlRemgAWqcVVQAyE1hOHHOEUaNY5aJTkqLAlufPvSP939n2/YjfqUBrhyfRSG14b5g uiTaac/zGCOl0X1Dw2EjSg18ZkC6p/dv9QdGTnVTW+mvLrxIE0NsIUQN1gwveAMAUKFLV2hjlTg1 2fq7r9//0ENPcNbjjCIs6Buc187yW2+69szYmQ2bXiyzWBDqtFPeUF5kew83H3r8xbvfe721XQuP eQpW6AKcgBEKUhJSJo5AhV/4/HeUV1uwYNbipas6Z+MXn3ji5Mvdz/7Vfw01hEDD7yPwLBWUg/ku Tppc1BiYKUtfysLww8fGhi4ddC4lTqCAMc4yThQpgL/+wr2NoeWZqZQlkaRKnIaNCcorL18tuSt0 JiUpYI0iKQiFUgTdHD9z0w3PPbuZhSy38aWXLZw/f+43v/rpMJAeAUmmvXqw5OJFagbuFJiZZ7Fw 1oETAJRZRrmGK+BKSpSHZoFuC7t2nd6+c/+933g0K3nk0+Fe2lOPrrzyytvf/KaR4XqWoSzzilQE kAIACCA9AQDOen6oLoCkUa2Q89tMAoBeWLkUkK+psLxCeLzw7Ae8xkjpVbln8tqS4U84fgyT9ZQy DoKkcEaSsan4v/y3zxzYc4KKYOnS5e9/7x2zhmrDQ6EQLismmYTWhlIqqc8JMbZkVAgeuBnjVIJY 43tP7XjkkSdOnW2WJRs/F1d656WZ1XlJBWNU6MIZyxghlUplbPQ0ybXHs0ojcDPlMp3j3JmzY6Oq 2mej4XnL14J5nFAHEMfj1IRexThXWCcDmhT6C5//xvc2bp1u6cJEpeGrll/e2z/rxKnTXp1s2rTp 7LkzjJFKpQbHrSOZFoJI6Qdf/8ajd9x5fV+lYhAnaV7hfVwCGhAAdA5NSbWZutOnO9Xa8ImTYy/v PaISvmRk9oBfzB/yA4GiRCXylMe4sM3OhPJVz0Df9LmWLz1jjPKlJ6O8MACKIlG8CiYYhzPoFNh7 dBy8XpQyKUpKhXbCE4raQoBba31fCMYA62AlVRY8s6UzIvKwduWskf6aqPW3U7P/5e2H92ypKmPz iYWLF/zqL318/shgb01KCusQx1kl8vKkVIFgAhbWgTpwC1pYWAAc9z+y6aXtL+/ed3h0fLooyMR0 89prr7/lxsuvWzu7vyGiKHLOmaKMPAElkrhbCSMAP0QlfgVw/7Mg/9yb18ir/+u/8JOP1xuEFA7w RFLa0hEB/MZv/d7URMdp8qef+r+vuXzYFQg8UIJOtxlGEYGhfOYRm2RpFmel8oR2NC5QWHzqz7/x 2HefkUHDq/a0YqGt83oGMxBe9ThUHCeddtcPoyiIjHbtqfbsoWGbTZRpa/XKZXOGCYcDJwdPjs1a sm71pVdUBkYQ9MAoEDqzlMJaBAcHUpbk1Gj+f/zW741P50QOtFrmputvXbF01ac++Wd+dCyIfAs9 HU/2NCrK95rTbQZf8UqRk2pYiVtnqMkIoEElaNX3dZ7CSq4YSFmUpROqnZFvP/zcM8/tLFmdhbXA 8J6Kf2zf7l/5j7/c04uiSKQMbn/Lkt/5w9MD1bof8jRvl83cOkKZLF0Rx0nRmTp4+MBVa/sDzsE0 SguiCgcw7N5zuFEfBI8UCJdhkbtW0q5IQ4GlS1fUInBQrS0lYIwREI8SRv9f9t473LKjuhP9rQo7 nXRzZ3VL6qRWahRBWAEkBAgJiWCMDbYHxuBBYOPA82D8PH42j2E89hvA2JjPNrbBxihgCSGDAkk5 IbXUyi0UO/ftG885O1fVmj/2ua0O50p936gZPLD6++q7vc85tWvvWmvVygu5ARG6U7t3/6hdby0S qRGy+Ohvv/9tl56mgNnuVC1KHTpWKAkVNRXDsGeskBalg9i+c3zx2OIsRl7gy1+5+dZb7prtdIJQ z3Yn6k39xkvPfsulFxy9bDQp4hGvVh1MpbXOWMdQJKIoOsJ4+BMNRz6pV4rJdter14SiT/7p3+0d nx5qNX/nN3/jlI1LKo9hljBR2qjXO2kWhXUCJbEJI6UDLQps3Z7desc937/9hw9sfjpqjg6Mrk+M m5gpgtpwEHlZlrEzUzNTvlKtZrNWrxdZmWcxGyvY2czMTOxYuSSM23sFQC4ts2R05YaVa0/yGsPw 6igBHcBV1XJpttOFF0lf3XTbQ3/yp59bvfbkoxcPpXG0ZHH4xOPP3nf3/cuWjaZpHOhyfHpybHgg zot2EjurtOdbQ865NE1qfpAnuOPWTW9+8ylCSutScqQCDRhT5Mpv5PDyUv3LFd+yNFgUype+SJIy nz1h/cqL3nQ8wVruMnRu9PBIIzPddmyGRxbPtJOxkWUvvPDCz513VuRD23aj0dJK50UZEUH71lqG 9BQee/xHRSHSNIP28yz2/VBaW2v6puuOP/44YyEYoVIEZUxBgqSQADRYa7rsLW/43i1PbDjhpMve 9nsrViL00E7KINKD9VDBFiglqIAREFmRRV5jOknDqNaJy9KGV1z1gy1PbL3zzgeTuHQOy5ct2nD8 mo2nrDnnvFMHhqlwbct7hr1abrquEFLK0PdJyqI0TKyVPrJ4+JMNRzyf0BLqrXqnxL/d8IN77t1U puaPP/N/H79uaV1hanxy6diwMySUNiCl6haUOMi6mslx1dWbrvnXmzqdEqrWibOh0dVJUcZpJjw/ DMPSmHKWDaD8IGoqyS7JYlvkisnXWmiOal5nZvtIE/Hszvf9yoeyJG9GLKPGQNQCZNZNZQE25DVD EGAstAobzRz4g//6xb2z9jWvv/TZFyZ2Pb1XlKEkMTO1bXQ0TNJtcTyd50E9asXTsxZhPRoTQZCm aRB4zbqc2rOtXhNlEW/fulXYU5RUUngIhUtj4QXKj+KyJK2uvf7WiWlDXhjqVt5tNwMvb+/8q89/ bmq6PTxINT8owELi9DNefdu9jw8MDHS608bSxZdctGXLloceecCVHZF3Od194XnrhxuhdaXJu54/ aCwXhp5+bntWMJSKonon63TSPbWAduzaOVr3BlqRJ1HGqJpuKHiVXlcUVgmBEr/y7svedulF2g+U RpbmTnqDkSZAIiyQg1VqEaggtdb3QgOEUe3qa+657fb7tm/d3m63hRA7dm177WvPuuzSt7z6jJMW LUISg4Qt2p1WMwKEda6m6lBzUiI7T1VlE6yqzCwHW01+KuDIEqEDUgOhkBv84Pt3JJ3y/NddcOKG pQqQMItGw25nNgxr3bQkHSpNT71QbpuY/dpV39j84FOSaiTqmdGuFINDK6ZmZ7TvS+Vya6wthRRS K1/o1BRKCVfmxEUzANvcFTNSItTR2Ree9pY3ve74dUODdSiuluN3Cut79aBe71XPSAsEHqRoJ7yn E+9sZ7qx6P7bb5N6cvfe7vDgaMtz47ue3XjSCs9L3vueD5x91gYJXHPdo1dc+b12R7fjMrdlVA+M aU/M7Bls6pHB+s9f+u4PfuB8TWDjyqLUoS+UD6EZojD+j56b/Yd/ukZFo3unOo2612ioeGb3+eef SQJRFFjYuChn4+KxLRNpKkdGlgm/dsb6NZ4X/eVf/mWj1bJIa4Fu+EOz7TQvkTtEQnq+LmEc1O49 Raedh1GTRYPZGpsFAcKQlq89qpgdP2XjsMnRCOEyCD1noDfwpITE7FS7OVgPIskoAdR8yeDSuqy0 2vOYfSWROXRyKCk3Pbr9yiuvfOCBx2emiqVLVk1MTi9ZPHLCiet+8yNfGB6EtRAMCXjKRL5C2CTA GieFco4rH56tEvuEBMD7inv9VMIRN8xIBQYm9na3Prc78sN3XPrWvIOg4ZzrKoFGw2eIqYni8aee vfG7927esn1Px1npq2BktpsRZY3WIBdu9+xUFNUdc56mjo0fKO1xWc7kmfW8FoyDzQJtNDKB+PRX H/8L77y00QyPXtEMFEwJWWVMse8YnieKqjZ9CSUB7QEoHGJHf/V3X7/jocdnulYHw1OT8fq162cm xvfsfuSiC0//rY/+8rIRf7q9U7iOFo3L3nzC+LbJf73mthB1GXpxsjPOdo8tCX7j8l86ed3aRUM6 UJiZ6CwabiAQsAxItqJbQGj87ZeusggLw0OLBssyy2wnbBYXXHRW1EBu1Jant3/2f/xdNw2OWX3W 4iUn7p7dEhfZ3XdtKkw5PLoojuNas26KbCbOy7hr2NNCZm7W2lxr7Xti646dnThW1OqkcXem3RoK h0daq1cu6Uxsv+xtvwqHQMMWLP0qrNmhtKU1OgxBaA03Qc5yXprM06EFFQU8HUWBNA4ScA4vPJ99 8W/+fs/uifG900mSeV4UhvKMM064+JKPLV/aatThLMDw5Vx2gisICiycgXABCQiBwpRCCC0kIBnM 1smDypjxgaUV/k+HI0+EQMZ4/qntk+OdZrNx5qljRQoF8oQklFOze6Qa2T2Rfez3/8xvLDayznKg cGwBEQilRMF5Zk1Yr8Vp5nm+9EPFmoQpTeHAfqCKtDM2NNidyVo+fuUXLrv4LWc0aygL62npnHWW Ik8UpROWfV9WXXk1AQzlwRUsPMotSokrv3Hn9d+5rzm6wrjUp3Co5e/e+vzooPfxP/7IG19/Yqhd nu1d2qw7WGcTzdFvfejcq776L5A1HdSPXhH93sf/dO36GhFCggCSxIyNNLg0ZC20ztPcqdAL8cjT 5slndjgKhPaTIhHkgGRwKDrjtau+8E/X3XP77U//aPv7/sPHnn1m8vu3Pjox3R1ZNhZnsVCUpUaF ol5vlGUu4UkSWdY1RjIA4XvCL5mJMD4+nsZxoyVroay1mmefc+aOrc88+dBDkzufu+C0E32CzeD7 BDawJbSCD00acEmWhkFoYARJKA/wnCPPU2kKZpQGt93xxBVXfv25Z7fVW80sK5TWq1cf8453XvKG 89cHAQAUGbSE8Hp529Y6T6paGFVucXKgOVyrNEDHjogIJI5QIcF/P3BkiVAABOeTeHzzFpfRJb9w oS0QefCI8iwPAtVsNTJXm5rNSC8vRI10xKUSpfVDWRqTpd16PZLKWFHIQFp2XOWBOU0kWCrFBWdT b3vTRWedfuLxx8mahsnhE9d9Z1CQIIIEEGgBDTCkhAcUBXuaQLDCxbk0Ep/7y+v/8cobrR4sXQuQ eTcXNh0O6NN/+NEzX9UACgFbD5oScJaFDAoHIZEmT77vgx88dvXq155zZi1EUnKoqZumg2EoA1Wa 0lOySle2JAoLYXHF16+fmO5a2dC+NnlSb4Tt2cJrjr7vI59u1OqlWHz2+ed9/gvXRbVFpdEji47K s46UksHN5kDSKcIwFOyRs0VuberiritGhRK+RaHI75Z4+MFNR61Ysnzl6ul2ZtC98ZtXD4aN9uTe NStWvuGcczSDPIBKcAafAAuQYbakVOAXsAxRQBjnWUgpsXMXnnj8hWu/cePzz+2Yac+WZV6rB8ce vfysnzv1lDNOWLFiMFRVvWsDwAsEQfbqTEFIuS+ZCCCQ92JsSnW2SernP/ipFEuP9ElYBewJCd+T vi+FEiAGWwRBDSgLWwpJN3/vPiuHcuuKbh4oj5xMu5nyRRTVytKU1ijNgHVkmGSv3igUsRRsXnPa +rdesHH5EgQCZOApEIwrU62rbP0DC2sAkhFqcq6E1IYEQnzmL66+5tt3ji5fNzXrpibjsZER090z 2mr8l//8kRPXRBpQsNZyWRQQWuoADkrCOL79zn/TQehASsE6NDR1U4ReeP+mTWedcooSEs5CALaM 6r4ENj/Vufn7tzjZ8MNGblhLb9fO8be949JWy3/owfu2PDPRncq2bcXYktWddlZv+rlJ0qzdaIZx mucpDbRG9u6dbDRq1rqjlh01sSu94ds3fvQ3LkrTIgw9AzDz0iWjd9/zcLd9f5wVJTqRLJeNLfns p37/uNWRBrLMhSGKtO1FvmNLpAwkk2KofYFcjkECt9+x5ZvX3fDoI08p6QNqdna2LPMPfuA/XHrZ 65SHvEhHR0MBGBt70oleCcuqGqzoZe4dKEYy4X9HMcF/H3DEiRCwAlqSp8jXiqQEOTAjTQqh2dPR no6b6TipW5Y79cGo7HCj1ciy1KJgy6bIQt8nJoKVKBkloIgFsSJWmuGSXUP1XDs/S/JQK5IApDNC SJ+IQcSgXgnTnkHAQAghKTPWKfnDzVu/cvW/tYZX7xzvKNVsNWrx9GTA3Te97g1nnRrBQINN6eBE EDTAsIXJysILg9yWUa2RFCbyZTtFluCu2x/6wQ++89Dm2//rp/6gKF1RJlGkwRZKTscdVWv82ec+ 45TwdMCgpYuXr127zjp36w9ui5OZRt0XFGpdK41M42nPU0k65QcIg7Qss0ZtMM2505ldvHisSLPC Zi88/+xAXe7es0sA9dB3DGdQ8+jTn/7jVas2+IF30vHr165bcdklFx691CMLT6LMirLshhR6UQCA KUodsoKDQGUFPA9xF089Pbnp/ifuuPPeyak9E5O7PM0Dg7UN64/9+Xf92mkb11U7SgAjcNYwUSBD yblgByHBYl+1WIYgUNVgfB8eHFLiBAc4038qz8AKfgw1ZhxerOXIRL0A2jCq5SZ18AYa4tZb7lL1 VSJAUeRgnXS63awTRR5J9j2ptZydnQ38CCDBRAzBILIEp5GuPmZ0bFgTI/B8MFBaOKG8eiX9cM8G Wu2wBQDBYJ6cmgkHRp94ZvIjH/t//NqYU/Vmwy8KhyIeiMRAGP7Gh85TgGO2pfN0DYwiL4mk9pWU ykqU7CuC56t/+vrd373x1qmJeHz39OBA2GqOLV+6UkuhdQQuQNSOY+m3Hnj0uWe2bT/jrDe1Bo+6 8cbbBNO3r/tWvd5UymtGg2XajkLPCQ61SG2syCw/qnnyxuPuvOueODWmzJJu7gVRuzNp0mKwWZPa rT56aNnSYQBlCSEQaHz1imtfc/qrLnnrO47bcMb6dUuMQ9Xfy9iEpA4CGwQBAAuRlYjzslaPoGGB TozvXnf/9dddXxacZnb79m2g4g0XnvPud791eDRatnhQCiNQGuQCJKEEpIGV5CuAWPXiNXsEJ+YS KFGRHB/sb/jfH6v5kwZHPmIG0gGWjWVjuZd6wgxjjTVgIbISWkrPI+mLvEw1SZPnrbocGvGmZ8Y9 TzkWg616kRA4IKsIjlBKkRIVQkwPDy+3nBWZ8chX2jcWSvUkViYAwvWCyBkA2MKUxmBgeHQqwx9/ +q+Ft8iPxnaNd5TIAyUCz7Snd3zx//uMKQC4yBcMmaasPWKtpUQOTGcMTXGOT37qHx599BmIAEaa Ily0fPnk3mcW1xpjo4uthRa9xq5RLRzv2oKjDSec8aNntz37wgPDrcW7du5o+L5iq5janZmR0WB2 ZpzYDQ0tika8X/3V977u3KMeeXJy8/13dKaSbmKXLFlRwiRJsuqYxRuPXx8pd9et11//ze/82vsu bng94+Ki0ZFrrvhKO06UigIf1sIDBGLlFQ4FoCyQF6y9RsYQAfbM4If3P33zTd+7+/a7Ai+sh5Fz RVSnyz/yjg++/9LSQRAUIc8z4QsBEcAH2FgjBflSE1yeZb6n58pJCDDN1U8AsL8GaEWvat5BheWr mkOHkOVPmeB6xE9CB+EAB2vYGFAlrxA5JVUovU5qb7xh0/BgY29n0iLxfVUjju3MUFg744TVp7/6 0tPPXPLZv7j5W9+6NQrGwNUpiMqmQrKQVKxeu5ZIh2FAEGAoX1oH56C8AzgwgcAEBhRJKWcz3HP/ 8zv2ZIWtZwkNDy12ZRKILO/sOmnDklUrvcBHmnQt6gyRlk6HkoB2hiee2X3j9+58+PEXNj/2XGto SacMrBGhFzg2OydnQi8888xTwhBaIityYlcaFqF67Ild/+m3/3Bg8dG7JuKhobE0iT2oPIvDWsR5 d6wpp8efOfnEY9/7nnePDTfXr29pILdYf+zw4qHmrh3dwUbzmFWroqFoZmZi+7PPPHD/+PT4VnLT Ntu5d3xbY8UqUwDAheefXbp0oNaLPhFwadL2Ayghkzxjx0E46HmY7uL7tz349HM777jzvvE9EwRI SUuXDV/6ljedfupJi5c1mk1hLOCs0rIs8oYfODhT5kIIX2olFQBnLZHy/Qi8z/ZyCPHw3EKo+vhn Z2B/ONLOelFVNLDknARI7Otj62CtEVHol1mZxTPNemum7DoXb1iz4qLz33zhm84Nauhm0D6e2rwp lESwRlhLxAALx1JBBhah3xhtpy7ydWXyIYVKNdnXVab3mL2MFmlNDM/XAT76sT8OB9cyNX1dz5K2 5iQr9/7yuy9633veDC5mu3GrXs/ZpCkpX8c5rvzXW776tW/OpAzVcDrSrRWTqVFBoJUypgwilXVi p82ylYvZARJa6ywtgtA3hN/57U8Oj6ydbrtabTTNSk9wFAjPKU9ks9Nbf/1973/Xu1/DDr6CJhBc UcZN7VnpJ1Ozp2zYuPToU6+54duIym4yOdKo757c24zwR7//8VXLoxUrxoh7+QdZwYazwPeSNFVC +742oCwRUb3BruYHctcu843rb/7nr30jrA/NxqnUSmi18cS1v/e7lx+1mPLMRoGs6MiTKAGUpu75 aZzWaqGnQwBgWOOISFQJLnHhRR7mTKIvHoO03/zwSBYAACAASURBVBHHmDsn53IX6KcrIOZlQR2Q 2vhKj4J6OSVWwEpi1YuMYCZBCpLAuPrqr0ZarVi59ITTL3rrm8/esMwXZVHaMu0iCrUDtjz5zOCi NaWVgHMiryQbEpAAWGw8aU2ke8kqcWajSDpGVYBsLpEMPR7MACC9WmLxR5/++8HBJSn7RF6rObhk dHDlsmjPts3fvembl7751BVLB4XnM5wgfyrr/rc//9zDDz5flhFzU4XNOC8dKQPywxDksiyWbMss XbRoNHT2vb9wnnKwpiTIIAq6Cb5xw2O11vLJtg0HRrpJx9PKptNLlw+v2bjmbRdfcMrGMDcgZ4Q0 7dmZsYHhNO9GfpRkmVL+J37vY3/4yc8/+MjjtXqUmOmT1i45ed3aN51/zqknDBcFIi/zwFnalX6d GUJyJOsOCELNFgwovyUl7rz/uWeffu6RR5+8+aYf1BoDpeGhyF+/Yd1pp2985zte5RGMwcxsZ6RV m5zaOdAcCFRgrPOEsNZKIAyCatvYgQApBRhsHEnhRx54ThnsjRWBzdX0fJEO90O6l5U2jyRO/gSO 6ojG6RELVdXVlp4RKEXpUAU0aQcwcWnwiY9/aOXSlV4YDIxoawB2FlV7M1MC19/0sAgHSq4ZK5xk pjiKom7X+CCRpyhmmhoazI4A1CNZbTGzEATAWWeFkARnjRMsnBBpzjsmkgcffEJ7zRVHHbv8qA33 /vD+mSTZ+dzWepgdd+zRR60Y8whshCdkm/G3137jxoeerMm1ob+oMxnX/cAP0sx0pYXHIokzT/Li 0daSxauazWBq2xMKEDaVws9ywCIz+NZNt6WOWGvLrixzX1Jdu499+Fdec3wgBUrhfC+tSmUODww7 6NAfZMCy7ys89fTD47s2K8Ilb3jrua//pVUrli1tRIEAGAXHml1R5rUwLF2HZJClWRg2shJ5jlod YPz1l757y133d5I06c6kSdtv1I5Zs/ySi9944QWvDgMAIIIAPIWw1bDA8NBSDwCclgKA9BQYUszl 6O3XtJXEfil8tI9y3IsiaA8cqjqg+yuKBxtCD8XA+Zok/J8J6oDUxld8ZBBDVPUEhHNkAFROg6qH rlZYs2bF2EAD7MCwbCQJKAU4pUQhsH33HlKho8APdJy3lU/TM+O+Hox0UHSy3/vNjygAXIIlkYSr WjIAADsnRNVuhwFILcDCGqQG37vtrpNOOd2pobvuffKZ53dYy3k242kzOTX+rk98sFq4LU03zdpW 7twxK/VwWegs7oaBV5Rx5JVFPB2FA40wWr5oxUknb3j66Yeeevzhsuz+/CVnJ9246VsSoeejk2Pb bty76eHayAod+EnSHhqqu3jigvNOP/2kIJ1FowmNQsAJSAclIfehXs1HWWDxaO2//MHlZ5/92qjm T85MtyLpmQJawZae58GVvteYbs80msMWUoeNqQQgbNudXf+tm6+84tqo1lRBaEw+Mth684XnvukN rzvp+EEFlIZ9EODm2qpW29LviHpZ0ZFe8r/Ai6fiAsC9eOsjip8/GaOyR1JdFgeyPcG9xhTkQGDL hkhXuWRc1WKtmC4RGEopZ/HUU09LoQF0u10dKmfdyOBQe6bsmnYg6IXnnnXuBDqQtfZkp7n/8n5F J41zUU3c88BDjz65Pc6DoL4kzvKyLMdGm1k8G9TEz73mWGPhS0hlg0DPTpkdT4wP08BsPDXSaGrd idOJrVu3/9qvX/7YY1uZ6zt3TN50wy3TM9uHWkGo+aTjTwxqUhDvGN85OrZUR/i/PvFf6kNDkKIo c+eyMo5bEf/G5W9vxxgbQHdqqt4aUhzse1dSAOyksJJKSeaMk1cwHeNpLrr5gB4MNWxRJPFs1Gg5 y6ULpBBRc5EBSuC2u5+554cPPfLYlgcfftQPG7JZrw/ULjz3rNM2HveqE49tNVCkKONSa6prAmxP Suzxreowrmpy/syC8mOFH0cvCsEgOOKq3QvmIllIkiwtlFIgkJTMkFLONVNzkMhyPPvcC0K3Slv6 vi5tpj3dbnf9oO7DcWF/53ff6izEIV10iKoWa6iqa7Fz7Kr2O2Kyizvv2yzUUNhoTk23SQdHrVq1 fduWRshnvvoMAFrCuUJKEiRm9kzObpsKGotZpA3tOumeSy6+8Nc//OevPeeXo+gokgOaWmlajI0u Ixcn3Vnf94lkt+yMji3tGtzw3Sdf2Dk+tmL9nol2rVZr+FGRjl/8xgubDYQAI68P1WDmZC7apyRY wAAsiKNGA1BFYgI/kBKdbqlD8pqtxLg4MUoH5KB9fPq/fe2W2+7UgT/b7QRhODLUGBhqfeITH1+/ Zsh3aHgggB0iDa10L3AU3JMjiXpdk50AOfSNJvsZHElQ8scSqSC4d0DNSYtwtoQkJQWhiuiv6uVX RcwFOweJ2ZlkdiZRaqTIrSRy7AhSSilJJHHHMynbF6uZV8D8YngUMzMzCCCy7ARJofDZP7+y1jwG omY5HBxuTc/O7Nw1rnWYZ/FZr/65JEMrgCDPlnlZlDue32lmZo9Zsur177h4/YkrTj/z2ITxR5/6 m6GhEctBmrNUBAh2okiLgWbr+BOOKW2WZqVVeHZr+1N/9pdLVx63Y9dMozU4M7l7xdLBjWvX//yl F6CEFQnLkqBAfnUOgQByqApDwc9zq70aW7CAjDQDJeA1tAG2zewdHRidNfjet27dvm3i+zfdAUgl ai88+exll77xhBOPPe3M49atXuxgBAxBCAiAmcuKFImrUrkCDIiqK6usqhmAqWfx+hn8GGFOJzxC wC8yXACiV3oVAIwxntQWMNYJgIRgZmetkorhIJRx2Ll7kqEEKSIiJTR0pzMThKoostCnC85+XbeD oRoA9Lodz7msAADOWgtiQBAJpSQYWY5bb3/QieH2bJmbtN6MfC8SopBki9SODo8pBQIkQUk/d9nS sdHrrv7KiqPQKVEK241dQeKeex9Jc1+Ffr3ZylMHQTNT04uHw9VHN0MfUvqtxuJZgx9u3iJ0fWK6 C+GlcfyeX3jn5O6nxwbcyjFRpEUYSuPSwpjAq0FUNSEZqOhDAGS1tg5CwjqUJQIPAFIgAZ7e0f3k f//SM09t5VKVSWlKhrEf/fDlF73xVUpCe/A0m2TWlN1Wq5WVxpDQQmqpAAFbmU01rANX7nWB6t0x HaCu/Ax+XKAY5sjNTiQOFW+qI9H39YvGbSEASEkCqhLNpBR5gudf2CFUaCyTFMYY64pmcyAvOvVa mLfbcTw5PAiUgCAxZ6zbv8WqkOj1u2cnSDCwa3dinWYRDgwMFw5xkmktPSVNUdRrUaCVL2ALkIIg hLXg+A3HFDlUAM3OC2Xm8Pm/uknrldKim5Qku4GKBodqnYnuzMz4ksUrmyFsSZlFnOHLX77aCwZG h5evW71ewlz5T19qBsUV//i5tF0ONr2iaJeWozA0SJgESDoIB2JIBwdYEugWiSfrSoiCYCyeezb+ 1k233HT7XdOdLsFpomVLhkcG6+9/77tPO3mZ7j0qPAFTwlcN+C1YG+iC4SxsjxkKAcuwAOlKRpgj uZ63/Yjiw8+gLyg6xGD8ikOfGzDYOVdFvxABsMZASEiycBICQFaYPePTIFUYR5K0JxT7caerNCXd dk3zG15/dp7Bl/37qjKzIMHg0hrnoLRXltixa49WfjtNvUg5JqmclM6UKSEbHoxarZAIgQc2PflQ aBsEwhGpUBiBhzfn37n5ocTVCoeoVo+zDgk7PT1RD6W24oQNqwjwNQTR+O7Oaaec/uiWHSbv3HLL tzUKj+IP/uovrlsVpUnuitzzQg9RVmZKSwC2ancNacEM5YDp9sxwc8AAmx557q47H9j84JPbd0yk uc2ty9PuJRe/6V3vvNT37ZpVDQ10OnHoK48o0F6R5Z7ng6lKX3EsHLGEX4UQAvuJm/vsoQciwY8B JX4G+4OCO8I1dixYgpmKwvTOq0o5FCRADtCCwJBKubkayYatIOmgtjzxfFkQkbCwrjSekr4XskuK ItENBD4pCa2rsso92CeUMjMRKhonCGZojTvvut1x5mwpSJW2DAOvNIlS+dsvu3Ao4uEhL81sGEqp zMzMxMDAYFZmQnsGvpVi0+b2By7/VNhc2c4RDtTa6Xi9ptNut1ULi85UkU+8+tUnCsCWmNybf+RD l8toKC5l6Xh0qPmqE467+IL3v/6s1UVakEuErpdJpsNGoOp5wVqTIOSlM2w8TwGIc0Q0cN/dO666 8tr7Nz1UC0KpyBbJWCv6nQ9/cN3aVcuXtphRlNYlGcgM+qQUiEBcevsaIPXSFvy5Fzv3fua2gPe1 TZ4DAShWP6PBHzOoed2h8ykG812fbx6JrIDygtbAUJGb3Djt9uVSO3Fgb+w5m7l0gJCYnO4yedY6 oYQS2llTllYr0axHrQZWLB3194VJ7r88BsgJEsYWJIQUioSoZs7y3DozNDy4a8+e9RuOGxsb2zux w5Pmyiu+6iN5zSlrl65b3EnzZqgHBoaTNPHCaNLmUoqrvn7rl79yU601VjhRb3iFSxp1mcTTWvgw xdErlo4MjC0a9bI8oUzeeMP1oUdZMXv+ua8/+VUb16xZceLaQQ/odGcG6yHCAMbqsJEkZRhp5VEn ds65oKF8iKk2Hrh/y2233/PD+x+Nu3maplKJkcUjF7z+7HPOPfOoJTXfuiAQYIBNqB1kr+W6KS0L YhI0l8HOrtd+fN/+0L7q1HPUWHko9ts65l7n38OGV0qBfKUo/5Uy7i50PfN9f773s9/3lX2lnBTz PDwb6ABxXu6dnCSltBKcv9Q0bo6Oihzje2eBAQeSUpRZoqXypCcIzpiyyIYGajT3kxf7re73bETE TNU5kOUuTsuJiSkp1EBraN3a4wsuH3744XZnatFwy/fqIXkPbHpy9arFtcC3AEMULugktDdXn/n8 Fx57dOfedhEGFrIjJLozuwZH6r7Mz9h42toVq+674/trjjlaAQalg/3OTd/8+bdd+PZ3vztqqiTn VkhJEUvNzboqXFeSlip0Dn6kLWGy0w0bdcXih5t3Xnftd+/94aNpYqTWXuDPZBPveNfFH778HUGA NEUjhHMQToBRlDDOeb4Q7KwtIVhoxZCAciBQz+QpGAfIOdT3732BZgwQS2UPc8d/IsHNQwzzpRTz PN8XP0ZPjXpyR7vXNvDAkSD7XmdHfa/3HQXgs1BBPS2s8ELhhb0oQgfI/d4K7e8p68GOnRPdTor6 sBTKOVdlJEopmeFsHga61fT2j2s6KOCDnSMiSdKAmCG1CIVfa7ROP33DPZueTlKzd3oqTdOxsRWz 0+OSPKHkNd+4ZdmiY8447aiZqUJripN42+69n/rcX6elKjIVhQ3mREkrZfHx3/2VRx99eHY62frU 5gduudlHvu4Xz4njZLAWlOArr/qKA+K0UIAfsuWs6SlGkcOR8OPchkoLibgLL8SuSfPCQ1u+9i/X 3L/pySWLjzFopbZ71IqVrz//7NecdfzgMLbuzrW2jOKFNKn5AUrtKy0khGCl2drcOqO1zPMOIKhq iAgNEDtJcJJLghEsDkyndUQ017Tc7YtQYagSwpE4zP19CTxZ6LggvHqJUUnvFZnHlO7I0cXBa/71 //zZV+Rl9V2cRhbkHQe9uxu0BoeN5dQi8mBzJzXmOz1LBhE2P/oYhG8sZKALU4a+tsY4IxRxGOiT TlhXC4Ge9nggzOmElQpqrWUoIcAl0jR77JkteaEmZyaDKKw3mu2O0f6YghGwO3ZN//fP/HMYCLaF 9ihNu+NTMwgaXtAsszSouWOOHqnVcNnbzjvr1SdmE89e8YPvpB0eqNXf+4tvP/2U41q1wNiERSUc Fo1QAS63uScEIA2Cqo+pVdQp4QEPPLLtzz/zN92kNj4Z1+v1kSWvGp+eVB4PLVs6nSQ333LXt797 S552wWUUaBLWmhyCU1gnyDmAhYRw1oJFFPpsDbETMCSqoi8ObBiS4TsowVVO+75X5fpaswDhWDrC /zoRvlJEtdCxLOwrwiyk0EeU6RxAhFn2ktLhITC3eXae8QBwbMmx0rI0yGxmKxWGIcR8sbkMUOU3 fujBzb4XFlYQSYuiqvGkhALnWZauXXOMAKwrpPQPJmYCACErpGNjDAlpmbpJNj3T3r5rZmjRutw6 oTylwyRtS+EXTmhytdbS2Xh6up0GgUJiWehocJlUoSC1at3Ks1+z8b67v/X61776rI3HtgSWD0Vr lg1fcvHbL3rjOY1Gr5pMXpooaHaSuB74eZoGQRhIP8ttyUCgibB7Er6Pr371xs/8j79YNLq0URtR Ui9furwwGVOxbPlIknc67V21ZmPHrt1DrUGCY2fZyiLNTZFFrYjIOXBhDDlJOgKUKU3XGoWel0HA giyhBByTM+7FeFSQY4DgmKootV6nPoFeLK8jxoJdFP2/z/PJeQuEeZjFvPNLOdee/sCRsS+l44CR qq61h3w/z4t5VvTKu3DUV/7iTxb0gwW9FAJgHXv6r79y63XfulZKJYE0R9RPEa0iiB1AAgw89dRT Sq1EIZxzUsqySJVQnueVRZKl2bGrjy5K57+kVcBYQ0L5flAlMY4MBevWr3l+4oXMlTpQcdLW1tQa UbebSELO7FkTRi2QyfJECBpdtGj5imXCit3bduzZvvWqrz74Rx//wLnnHF/zTGmSS84/7+1vfJMf AsDk9N6BwUaamShoFoadE0Io4SwygqZACcG4/9HZ79x67+13b3p++y4BtWT5icuWLH3jBee+7uyN ng8IGHaWXekMEQWB12jQxJ5ECuFJlcVJI6rVQjk9m5IiksJZEJHva2bkGVtrfV/hIA3nxZfDxGBy c0Q4J7pzlftPdED6c6VH/3sF516ZxYtXSCk8HHpRP/jOzY5QiSv/K2MlgBx8HcpaBI2lz2zdWdoe 6+2VfQDmrDCYOxWlBHJrlFQlsGeq6zclk3Sl076EUrY0JRLBZd1XJx+32FOQqLrBAtVEc6bRfces IDg4diLNbRjKo1YszdJHE+e0FzXqNVNykceBL6QkQS5J4yIto1CvO35Ns9l89tmnN296SLpCObti 8fCfffqzoy0IzsEcKq1C7SyYYVw5PNhksOf7BiBF5IedHFL6RYm8ix/cdu/n//Yf26VQQcvJUHst ReK44447+fjjLco77r4ly6a8wJfaT7LU04EKVKfTcWURhqGWSgBwZIqSHHmeZ4rS931rbVEUECSE AkBSOVdliaHqxAqAQYJAKCpqc/u9lurdAAALwRIQvZOBHKNw5A5/3yX67ftLjWKBeGXnuS+9Itdh 3ZFbP3rhmC9HhJ//h2uZQFXQ0n4jW9f3OjnR97qkPteJSTqVOS+PRoLaQNZN2MHXsMYJwXO9i12P gzsmwHeWpfrOrU/IxlhsnWUX+rWkjC1K3weZjnTx2mXLPAsjQaTFXAhOjxB7mk/PigOwgPMEvFBa 4Jfece5Xrr6jmCEURkkBY0NfQ5mJqd2t4WjF0U3Y4sQTTtjy2NNbHn3IE6G0ZTMq3vuLb734zT83 OFDhsDCwALFCKWCt85U2gEFRMb0CmDHIE2za9PjmBx++4Yabstx4QURCl3niqGBG6eihh+576IF7 GEbIEuQwj3SO/UTt6jEP5vTckyX349wHsF5mV/2WhTvwes9XSHzAT4RQC0hJJQdXhQMcjA9w3AdP IIir5LaDZ5NC9J2fmPvOP9/Y/77zX++Lt/PiP4SA6Lt+QXTo+gHnXH9j8/4npLrssnf13/t5j+P+ 1/uKo4LhMelo8JZHnn7s8fuHW81AIIshhPP0vrBl2ApJqJdqWFps3zWVs2bpuRLOOAnplLbIhTSc JauPOs4jgGAAnw8OGZ0LFH/xavU6JJMAXf7+d/7Rp/+q0RxL0nZWuKA+1Ek6/+lD/3H7zmfuvusW LfHdG64frA82NG974amPXv7+97/nvKEBAMgKK5iFZCZiyXkeC+2xc2lOnu9Z4xUGwsODT3S/8rVr HnzwwSzNBwcH20atXX/cxo0bpZQ0F6tSoRaz7YWYv9wmHc6+vFI62L6D9PDmrww8fRjI/PjT3yc2 3/zW2gWl9s5331fuvS3Mp3c4Xlf10Q9c0PcD+0p4i4gRCLQL7Ik7T2zulGlMDs5wWFcMOCjJvfgq BysEJDvrbF7ys88+by0pKYnIWkOSwNIYJiFcaY4/fh0J2J78VeXj7LunOBB594vRYXjApW9Yl8WX fuaLf79o6arFR6+fTcwytexzf/3FgSBUTKbMV4wsGR4I16xe9fGPf1owZJZ6AKC1lpWzqTQ5l0XD F3nervl1Zr17T7x3Krvn3seuuPaG7ZPdWmuwEY5xObNu9Ykf+I9nv/bVy6Ts9XaucvcqdKgSPEKB vts0H27Mp/IsFJfm85u9Uv6xV2qdr1SN/IXi80L9iv2/TAAfXGv1UFAf+vU/6Xsca6kOUwCoRgE6 9LqgMiDDXu3x8VwrKRUJgajWCxquwmUqxjtnlAEA4+yOnROOBSCEqA4NltDWKqEYktevP6ayMCi8 GPq/H8xTUpZBgFLuwjecsvzoke/ceu/Nt96yc89s6A8OB5Eo2he+7pwLX39eK1KnnjoggE4Xvizr fmmSroEKwgFAWUvESmvflDBWPfX49nvv3Xz3fY/86JldndRKHUVBZLIUWg01mzMTE1d99avXXa2c M0JWJ4YjwaJylRITA7Z/S6L5DAxKecDhvv8Fm1iIyzLve/LM59JgJ/qenEr1PTEcyM7VI315cY4h bMkMcdh46Kqj7dD5teovZgvIheC5I1imPuufZxTsBNPLrF+Ndzt9P7ClWRAR9pW5JQylHRk2Yh4U WledXpREmSU6rJDSA5MiVsyVIGmAvHTtTgr4xrKUCmDrHJGW5Ekqo3q0ZOkA90oAE+DmqFAcRHK9 cR/yECyhhGu0GmedevI5p578//7WB7mAp5EW8AIkJfyqxApDACN1ALqwpY4GFVyRtfPM+l7dUm2y jR89P/OFv/nn+x9+Mqw3jM09L2ou85NOu6YkWyfKmSwuRDkrhEhTSpKkQmI6EL+ZwJ7qy1vnE0eN mdPxDlMXqlD/MIGc1gr9SLe/2MaCoPoSoTF9TfkOZEEL0CG19BdChBUz6kMk1pi+pALXl3m9JBEe to4KFooVIF7ahKM+98kP9d2OeTjZwmRoyVzz1Wwmvvzt+6+/4dtF0nEO1kEHEVD5J3tp3UxcWcod YWY2jpNSCJ+ZSYDhwLCGBStrs5HhgSAAwzqG7GlZ+zxh+zUh2f+POXwm4sQkgYqszX34igAJOETs TGkj5YqyFEoWeV4P6oAqHZcymujGgafrQS3Lunff9chddz34xJNb9+ztzrSzQT/YeOLR55x3+orl Q1JmgWaULEl4UjnnrOWiKLTWnhcQVYVPezWpegZMchmXVTbJYYISC9VJqO9RO98+WlcuYHYWNE8m /ry62QExAy+7HmHNwg7z/SKBDms9+xjV4c4vcPjrJxZVzfg+H+1vmFnevq3/2uYltgVgjCWZsfTD JV76XFROjUZeSChzyAAsfVTeBEIBYcEkLAADtXPPjtk4Z6oTSccM5wRJwVKSZGOXLBoF2cBDYaql uIMC1uYFcpJ5SNUZopsZ1GCBJLOBJ8knBish2RSalAr8zFnHTkjRBkS9tmUHf/3Kr//g5lulcU0t 4okddZG+4/Tj3nz+mcuWNPL8cZVZP1Bxt6tCDcBkxllIqX3fZ8tF2xBJQLAj7lmupWCQcFIY0S/O wc6jxLBdgCGHiec7UV/iNfXcFQfCvIaNfovH/OtfaOK+lAta/7yGrvn9h/3nn/+9LcDAw4Aj15fM D3BRPHbftxfub3GCxUEjLA69boTKVT31l0/t6fhaqMrp1Y9q6MVF673T3TgthSeUlq4s4YzUWgnl EQtrR0aaWloBmjur9wXfzMPqxL52FA5EbCCV16gFSZ4LIcJIW2s8KQiiNEWgvCTOWfheqNsxdk52 Ht7y/BVXf2Pzg48ONgcHwroU+cigf8aGEzeuHgkxu+3ZW7c91a6HgsiWZUlSFGQrbi+ldJWG4kgI ARY9pwBXVQAgIQVZ4QqQIRZMbv8Rjg66Qiz2Icfh+mkJ6Bn6D55fQPa7DljNhEM/gcUhcxALFvOI Z311VLCorIuHzlQ9cZ87wCzIbym4Dx46copUv+vz+gn74z8EOemoz/rnG0m6vpr5/kxBDa591WFJ t4IOkIwPD2kYCrJeeMu9Z57KaSKxVBBUBEhDPXE0hBUeg6kkLi15OdO992/2ghpLneW5VkoKnWWZ F4RFnikqzjxjYz3ysmJae4OFYakOam+wj9W4yjQEWMCVrgA5QUIqj1EIiLovyrIQrlSSYB2M0V4A 1uSE8PSX/uHG7995X5q5iYmJeHbmqEhvXL/kzI3rRod9T2ZhjaztghRhQLJRzkl2vaIAJPdpYtRj LAAcM1e60IvCDDGYmKq3eljb+iLPOmx/l3PusBFGMECsGX3WMw/ROrDpq4P195txlViMQ8lBsDyE cAQLx67kfjrky2huh810FmRoZAi2xNRn/RLq0PWDHLEhfhmJWp36unNf+hsvQi8FbUE2ZgH2oRbf 95y9677Hut2udZBERZkrbV6UTAhECiQESQ3MzubKD2a7aVGYaHAI1vnaK4o00ixc6WsUeRL6ngMr Sczoo5ZUXnvissgcrOdpIUTVk6ksC0971uZlmQdBCIiitIRAe7LdcVu37fnXf732zrvuHp+cGhkd LdOk6eyH3/P2t192QWM0hJ0GuqAUyNGrMyx6pXOq0IMX302P9oCqdtO+/xpgX3iBA2TVtnMBb/T/ hztwAdOLvrIoML/NHvP48eaxpr68wf5gcAswLB1x6G8KnhcY4Jdfv3rsmn/u/3Pur07wPGTd98uO YCWZ2qqtj06oYnaoFnpVxIGulZxr0lUgsSUYEgLKQGWMBx/Z0s4bjYGl1nKcJFm7u3TJcpekQhRF 2l67dlXgCyBP0zQIoz537an+DEB5noFL+9toSgAADW9JREFUbK6lz0CcxU2/AQsphNReWphSRLOZ v3Nvft3137v3nk1T43s0YpXNrFkkTljLQ55/xpp1g/Wd22//4mw8DpUFITmXmCKteQExESuGstAM aatKObYQ+8f4ztGbAM1ZHffPoVUGCtzH1jKvs34hhgRHWDjVLhTjxUKonIlfPoLkwF8saH7M97zz 2zgWpBNyX9PxfOD2s92/xPxqamL6QOtib2SmfX8TyQPKkh+2WMDEcd5xdXSmCwlSymMgTaE0k55b BMM5OAFHzoEefazdbheq6aVFJpiCwNPc6LZnHLkS3dBzi8c8Qpl0O7X64oP3k7ln6iEAFMeJVwsJ moRMrfWlHwS+LSGBTmz9Rt0A/3zVDf901bfjXEhVc8YWxezSpY3T15+5YWVE+e7QzCSdZ/PZwgrj hQpkJvZ2BcxAvTa7d5KYBAsHZUk6UhYSxIRiztByAMuk/uq5cFXY/qEBWyQOEfEI+4j6kP3qO85p I4fn06pGMocz8362aH346wEswYHM4ab5LHj+heHnfjtxePOTxULWzwSHyt9+8D847PtbnXnRLx3O 7Yl4v4c83PwxgtFaGrnoifTJB164fbKT5wz4bJD4KAkKXAdDOyiApDDAj57a6vktAxQ2JadIotVq tGemopoWbM865RQBFHmuZOXRm6sf3YtRc3OXRJZlUa1hgNluUat7SqpuAa0gJDpdPPDw+LXfvOnO +zZZw62BeqSL5SPml3/x4uOOXRR5BkVXCdduzywZa6XxbiksSghGoAPhRFlkgFNazBl7nGAQ93xZ TuwjNwEmQBALQLBDT5jppQ71AqadyAFz+Egv5iHCAxnl/syUHR0+UfWc6UeMCI0kBtnDJ0J2aiHz z4uf/fMAF0yEhtn2XX/f+QmocqNe2oaiut12Hw7dD4gI5JxzfZfYFwmInWROyJ9tx8xaeRGoKm0o eqZtnmPwFfcnPPH40yC/tCash3Aqno590lKKuDuRpjs2vuoCCyghlVczxsgDnJmW2c6dKewHUTvO dBB4oTcxjVoLpcV9D2z7q89/gYTau3ciztKlg63Bpr9h9eI3nnvaWMuG1HF7t4V1n5kJyi/KfLZs xxONmi9JFbk1SUFOCkAp1c0KJgcYEFMVNuLABAOyRHP2NIU5ehM9jijmEogqC5tlyvqmqM0vjvbX SfqKW47mS96db48XenJi3+McHjhiu6D5ieS8auq86+8D84qjhz85AHK9ItWHrJYZ80ku1O8WB4ij m2+/5rDuPvcbxkI4JQuGTryjtz2fEZf1KHKMPC+iQAho3lf1kgCCZaQGDz70eBDWyeekyIRVYRQw EzMHoRoZGlu+dCxLs1qowZzneTRHhMymiocmAjNVVoFaLdi1N4MMtMaX/u57X/7qVZ70BpuNZGZH Xbc3rFBrV/DqZbXBcEvy0D07jJGWiUkLmed5EPrOmcwkQT3aYYuytEKI8H+2dy09dhRX+Dv16O77 mPFzbAPGsbGx44mwMSgY8BMFRkAQWIJFoghlgZRskgiUTX5BdmQTKckur0WCyJNECSRCGGIeEYQk gBVsxxhwZjACG8/MfXVX1TlZ9L13xmbuMG3PNYPxt7vdfatPnaqv6/XVqbjEDJcFrS2Qy+DyTk2+ As/SmSKamlUG8s9zxyNTtaTdchYMMDhjiaJ3JSOiIuK1DqPmPhcJFBlGqo5P5liJpZdAfDYUEusV 86fqEGHu9s88jDyDhCtXb5iLqdP+M3PsjRm7o4FUxmqgsn7xf0+4o+830oYm2CRSyAhxe1eBAjQc kKXpZKYyDo207tmVYqsRstq4D2p409odO3dt27rmpq0rdfAQQeYqSUkkV7sFEWJQgAFrdKr1m282 nvjL/mcOPD924r1my2voSsUOb1y7Yc22DVeWB6Nx445H4WQsTaou1qwSXeJgibS1mtlzSLXVqfdx UvbsGmnL6MgYE4J4z1pZgASKCUKc0wmA7urmz6igDM635PC0W4CQwBTSbPQiYS8UlI+q9tbyIm8o UOlFqR7NZs+WiqQgCWd+eF4W3ztDjDmDpH3Ezqwww3c/VCDRdtJFomhoEVr61yO/l5eOBIQAaDgl zJnRxggBBh6pwJdL1YNH306pQbGNyal00nj3wP337bp+24a1ixYPAAE6P3KbAWiEQFBemgHCFDUy 2Fh7Qb2GF/4++sMf/SQEdi4jcUlcXb92+cjI7nvuujnS0GCFlqGMKIM4UAAEknO327/tOq5TSFPO 71yRD9/qLOFM/37nV1Tukw+v8RQjVf9R1J6CzVS/0592FMmcrhdGIfvnZLxhvfzcbJkLhDiQMOKA GKKZ8tGRKGEFgzzgO4egGgam0WycGHtn/OTb6zZds3rV0I4brtu+ZfOGKxPlYYHQbBlrQMxpppIy rBIh0kqjCsAzRt85deTYG//456FHf/WHOFnkQlg8OLhqxaJrr9l4+207t21ZqoCJDxrlAavIAxQQ EyWY7RsJ9NBwzZblThnnyZ79s92HnfaCgjFUij7fC8XlbJ9U5J6ZKo7++P/crMph+lsYZHP1InFM bBVbBVB+1jUBBA4gozWMgtKkhwaq3/3ON7fvuLGaoGRhgFbTW61glCklQmCgHqywOPjIRAGwHkcP N378s1+8cez4uydPQ8llq5Y00ol7v3jLyG27tmxarQHnPDG0wmC1pMmD2j37ueX9HP1zVuJF3lgg 2Y89nQWO7nL3QvZ/f0lIIAgEUBxBNKa0rB46hgdEFBFgspCVoso1w5s3hxBpjqAMwOzLSSBCGlKj Sh/UG6ZU1jE1hJzEh94+/fKLr+1/7NmxN0+44AP85VcODa0Y3HPLDfv27W5lrcEo0kiBULbKQAhW GxKo6bSij+TY+fmn696ifp6vlrDX858SEnZRNL8X0j8zbwabN0hXwECUz+gAgAM5UApjNFhADO89 i0G1YgCT1RvGJhBmbkF5ISiNGupJZcAD79Tk0V/vf/Xg6KHXx9JaVuI0baS3juzYtefazw6vXrVy oGTR9ONLokTQ4iBWGwvlsgwhtUlCEJnew/xoXxf1z1Tnp/07nzjrcGSOpdv7sWKk+rSR7SxMP6yy c2XBOaT/J/Xm0RzICbLuHAWIwAIlinQmGQilOCGAUxHOokoMhXq9xoRSpXJq8gOxJkmWvPjqf77/ g5++fng0jlYm5ZUTJ+tDy5fu2X79Q9+6Y7CavwqETJANGp2mE7EpGR0pKEBZW8LU1uopXLCy6arm z+oXLcA6cVGiqP97bX2ar1CIZ+yimJcUe4LyoJYKekJUk+EYCLAaisSAVAB8W2vgBMwRgWwAOWZb XeyAFvCvVyaff+GVgwePvn9yYnT0tNbVdZsv37hp7c5d2/fsXOMFlqCBVpZCQjWOanVXqlSj2AKK A3sO+aan4EEEZc91kNcHzMLAhdx9umgwj/4/H/S7JWS0TzHJWDkmFkCgA2CUYiAAhCTAAd4HjnTZ AylDoETw8MM/f/bASxKSLKVmw3uf3f/lr9x5x96N6zFZw/JlqLfq2maiRCiJDRJVdplfXF7SajST yECTApFuf7qUOc/x3XmB2ocJX2i29HuW7xOBfHqmkP/77Z/pLWp/SShQDJUFgGxgsKYMCJxaBIOI gxKr6ini2LrMxoTTTUxmeOpvrzzx+FOHDx1NMy4npWXLF12+urpn1w1793z+M1doArRgYCnAiJK4 U8U0KQtBpA0CkqjU2dbGRCxwjLaKSMH01bsfLrwLw73pE/Gz2/NxoZeFc7l7nugycGGi/2NCQAEu k7hUfWr/ga9/dR8rK4APsFZNpAgC5xFH+OPv/v34n598a+w9mKhea3qHqzdcNTLyhZtv2rpiBcBY NgAW9q3JwVIZYGRBCBSZrlT6jKXRtnZPAWAEgWewasuyFtr6+CV8qtF3EgYPrXHfvV/67Z+e/N/x d597+dju69ZlzlasarSQJDjyhjzyy98ceOb50PBZllUGquUB7B658Z59t2+8uuwEPkMlbqfGLstj /gGMmEksOJ4KqUb5ltkzMiVQAtXWBYB1V/5/sWHhfuk7mN3ChW9/v0DzFbl5ZggEcEAt4Bvf/t7x 0bHI0J237t678ybXyJ5+5rmXXzv81vETIvrU+ye3bt60/frrrt541fDn1q9ZZwC4IJEWIKTcBFPJ xLnyUAHOpSIhjsoIpk1C6pAQ6DZ30okxKGBGUICGpouRhFNquYWK2S1c+Pb3D30mIRhwHurEuHiK 7rr7gRXLrmieGufMVZI4iG8xs5ZKNXrwwa/dtne4PtFctqhUq9eYeWCgoiGM4FwzPxUTIEB5KJUH v2cYyiN5BogGTVdyMsDSZme+i2/azYuxpBd+Jb5Ewl7oNwk90Gq0mpQMeeDIsfDoI4+9+9aYuMw1 aysuWzl87ZYdt9y4+goIkDXqg2WD4DQprTTyEzCZldUAh5AppUBWoAW2vVEB0PBAAHTetZ4mWfc5 8wgEMVOyAXWJhB8PLpGwF/rfEvoWjG3BOsAJXIp03MWG4TPHbuiypU2PyMAHlDVYUkuxMEIICqKN apPHpyADrfKo+QLxQZggEmKjCdzhnmqLAfK85YzL89feiskFu6KfmI7rwq/El0jYC/8HnbNAF+G8 guYAAAAASUVORK5CYII= "
       height="143"
       width="300" />
    <g
       id="g4076"
       transform="matrix(2.0270976,0,0,1.0276977,-281.01558,-24.017409)"
       inkscape:export-filename="/home/rafael/Dropbox/Software/Transportes Garea/Logotipo/Garea_cabeceira.png"
       inkscape:export-xdpi="300"
       inkscape:export-ydpi="300">
      <rect
         inkscape:export-ydpi="150"
         inkscape:export-xdpi="150"
         inkscape:export-filename="/home/rafael/Dropbox/Software/Transportes Garea/Logotipo/footer_factura_good.jpg.png"
         y="865.27618"
         x="273.60156"
         height="1.8491408"
         width="324.28351"
         id="rect3780-9"
         style="fill:#d89c68;fill-opacity:1;stroke:none" />
      <rect
         inkscape:export-ydpi="150"
         inkscape:export-xdpi="150"
         inkscape:export-filename="/home/rafael/Dropbox/Software/Transportes Garea/Logotipo/footer_factura_good.jpg.png"
         y="862.8855"
         x="273.60156"
         height="1.8491307"
         width="324.28351"
         id="rect3780-8-7"
         style="fill:#d89c68;fill-opacity:1;stroke:none" />
      <rect
         inkscape:export-ydpi="150"
         inkscape:export-xdpi="150"
         inkscape:export-filename="/home/rafael/Dropbox/Software/Transportes Garea/Logotipo/footer_factura_good.jpg.png"
         y="860.49493"
         x="273.60156"
         height="1.8491307"
         width="324.28351"
         id="rect3780-8-6-5"
         style="fill:#d89c68;fill-opacity:1;stroke:none" />
      <rect
         inkscape:export-ydpi="150"
         inkscape:export-xdpi="150"
         inkscape:export-filename="/home/rafael/Dropbox/Software/Transportes Garea/Logotipo/footer_factura_good.jpg.png"
         y="858.09479"
         x="273.60156"
         height="1.8491408"
         width="324.28351"
         id="rect3780-6-5"
         style="fill:#013a7d;fill-opacity:1;stroke:none" />
      <rect
         inkscape:export-ydpi="150"
         inkscape:export-xdpi="150"
         inkscape:export-filename="/home/rafael/Dropbox/Software/Transportes Garea/Logotipo/footer_factura_good.jpg.png"
         y="855.70441"
         x="273.60156"
         height="1.8491307"
         width="324.28351"
         id="rect3780-8-1-5"
         style="fill:#013a7d;fill-opacity:1;stroke:none" />
      <rect
         inkscape:export-ydpi="150"
         inkscape:export-xdpi="150"
         inkscape:export-filename="/home/rafael/Dropbox/Software/Transportes Garea/Logotipo/footer_factura_good.jpg.png"
         y="853.31335"
         x="273.60156"
         height="1.8491307"
         width="324.28351"
         id="rect3780-8-6-8-8"
         style="fill:#013a7d;fill-opacity:1;stroke:none" />
    </g>
    <path
       style="fill:#ffffff;fill-opacity:1;stroke:#003b7d;stroke-width:1.0960896;stroke-linejoin:round;stroke-miterlimit:4;stroke-opacity:1"
       d="m 284.64104,793.3703 163.01492,0 c 6.92807,0 12.50554,5.57759 12.50554,12.50581 l 0,30.93951 c 0,6.92822 -5.57747,12.50581 -12.50554,12.50581 l -163.01492,0 c -6.92807,0 -12.50554,-5.57759 -12.50554,-12.50581 l 0,-30.93951 c 0,-6.92822 5.57747,-12.50581 12.50554,-12.50581 z"
       id="rect3248"
       transform="matrix(0.9999968,0.00252964,0.03482483,0.99939343,0,0)" />
    <flowRoot
       transform="matrix(0.94374894,0.00634998,0.03514548,0.88927839,-10.568083,105.29701)"
       xml:space="preserve"
       id="flowRoot4018"
       style="font-size:40px;font-style:italic;font-variant:normal;font-weight:bold;font-stretch:normal;text-align:start;line-height:125%;letter-spacing:0px;word-spacing:0px;writing-mode:lr-tb;text-anchor:start;fill:#003b7d;fill-opacity:1;stroke:none;font-family:FreeSans;-inkscape-font-specification:FreeSans Bold Italic"><flowRegion
         id="flowRegion4020"><rect
           id="rect4022"
           width="320.71429"
           height="100.00001"
           x="298.57144"
           y="768.07648"
           style="font-size:40px;font-style:italic;font-variant:normal;font-weight:bold;font-stretch:normal;text-align:start;line-height:125%;writing-mode:lr-tb;text-anchor:start;fill:#003b7d;fill-opacity:1;font-family:FreeSans;-inkscape-font-specification:FreeSans Bold Italic" /></flowRegion><flowPara
         id="flowPara4024"><flowSpan
   style="font-size:65px;font-style:italic;font-variant:normal;font-weight:bold;font-stretch:normal;text-align:start;line-height:125%;writing-mode:lr-tb;text-anchor:start;fill:#003b7d;fill-opacity:1;font-family:FreeSans;-inkscape-font-specification:FreeSans Bold Italic"
   id="flowSpan4026">T</flowSpan> GAREA</flowPara></flowRoot>    <flowRoot
       xml:space="preserve"
       id="flowRoot4036"
       style="font-size:20px;font-style:italic;font-variant:normal;font-weight:bold;font-stretch:normal;text-align:start;line-height:125%;letter-spacing:0px;word-spacing:0px;writing-mode:lr-tb;text-anchor:start;fill:#d89c68;fill-opacity:1;stroke:none;font-family:FreeSans;-inkscape-font-specification:FreeSans Bold Italic"
       transform="matrix(0.94374894,0.00634998,0.03514548,0.88927839,26.974897,188.69007)"><flowRegion
         id="flowRegion4038"><rect
           id="rect4040"
           width="296.42859"
           height="57.857124"
           x="311.42856"
           y="681.64789"
           style="font-size:20px;font-style:italic;font-variant:normal;font-weight:bold;font-stretch:normal;text-align:start;line-height:125%;writing-mode:lr-tb;text-anchor:start;fill:#d89c68;fill-opacity:1;font-family:FreeSans;-inkscape-font-specification:FreeSans Bold Italic" /></flowRegion><flowPara
         id="flowPara4042">RANSPORTES</flowPara></flowRoot>  </g>
</svg>
